[
  {
    "mediaId": "p-steve-officiel-amina",
    "artist": "P Steve Officiel",
    "title": "Amina",
    "imageUrl": "Best of Latin",
    "genre": "Latin",
    "trackUrl": "https://mp3d.jamendo.com/download/track/1693256/mp32"
  },
  {
    "mediaId": "christian-petermann-toledo",
    "artist": "Christian Petermann",
    "title": "Toledo",
    "imageUrl": "Best of Latin",
    "genre": "Latin",
    "trackUrl": "https://mp3d.jamendo.com/download/track/1694063/mp32"
  },
  {
    "mediaId": "christian-petermann-acapulco-cafe",
    "artist": "Christian Petermann",
    "title": "Acapulco_cafe",
    "imageUrl": "Best of Latin",
    "genre": "Latin",
    "trackUrl": "https://mp3d.jamendo.com/download/track/1694046/mp32"
  },
  {
    "mediaId": "beliano-ad-toca",
    "artist": "Beliano Ad",
    "title": "Toca",
    "imageUrl": "Best of Latin",
    "genre": "Latin",
    "trackUrl": "https://mp3d.jamendo.com/download/track/1667238/mp32"
  },
  {
    "mediaId": "jan-y-su-son-latino-que-viva-la-salsa",
    "artist": "Jan y Su Son Latino",
    "title": "Que Viva La Salsa",
    "imageUrl": "Best of Latin",
    "genre": "Latin",
    "trackUrl": "https://mp3d.jamendo.com/download/track/1658258/mp32"
  },
  {
    "mediaId": "christian-petermann-menorca",
    "artist": "Christian Petermann",
    "title": "Menorca",
    "imageUrl": "Best of Latin",
    "genre": "Latin",
    "trackUrl": "https://mp3d.jamendo.com/download/track/1694051/mp32"
  },
  {
    "mediaId": "christian-petermann-ariadne",
    "artist": "Christian Petermann",
    "title": "Ariadne",
    "imageUrl": "Best of Latin",
    "genre": "Latin",
    "trackUrl": "https://mp3d.jamendo.com/download/track/1694048/mp32"
  },
  {
    "mediaId": "jovi-el-neycom-carne-o-pecao-jovi-el-neycom-ft-yofrangel-reggaeton-rap-edm-reggae-trap-dubstep-dembow-hiphop-house",
    "artist": "JOVI EL NEYCOM",
    "title": "CARNE O PECAO - JOVI EL NEYCOM ft YOFRANGEL  (REGGAETON, RAP, EDM, REGGAE, TRAP, DUBSTEP, DEMBOW, HIPHOP, HOUSE)",
    "imageUrl": "Best of Latin",
    "genre": "Latin",
    "trackUrl": "https://mp3d.jamendo.com/download/track/1676848/mp32"
  },
  {
    "mediaId": "abydos-music-latin-elevator-music",
    "artist": "Abydos Music",
    "title": "Latin Elevator Music",
    "imageUrl": "Best of Latin",
    "genre": "Latin",
    "trackUrl": "https://mp3d.jamendo.com/download/track/1683500/mp32"
  },
  {
    "mediaId": "christian-petermann-spanish-affair",
    "artist": "Christian Petermann",
    "title": "Spanish_affair",
    "imageUrl": "Best of Latin",
    "genre": "Latin",
    "trackUrl": "https://mp3d.jamendo.com/download/track/1694061/mp32"
  },
  {
    "mediaId": "christian-petermann-unforgettable-dream",
    "artist": "Christian Petermann",
    "title": "Unforgettable_dream",
    "imageUrl": "Best of Latin",
    "genre": "Latin",
    "trackUrl": "https://mp3d.jamendo.com/download/track/1694064/mp32"
  },
  {
    "mediaId": "edward-jay-wanchy-nocturno-el-mareo-prod-by-tauro-9",
    "artist": "Edward Jay",
    "title": "Wanchy Nocturno - El Mareo (Prod.By Tauro.9)",
    "imageUrl": "Best of Latin",
    "genre": "Latin",
    "trackUrl": "https://mp3d.jamendo.com/download/track/1655539/mp32"
  },
  {
    "mediaId": "ris-charm-nada-mas",
    "artist": "Ris Charm",
    "title": "Nada Ma\u0301s",
    "imageUrl": "Best of Latin",
    "genre": "Latin",
    "trackUrl": "https://mp3d.jamendo.com/download/track/1619484/mp32"
  },
  {
    "mediaId": "christian-petermann-caranjo",
    "artist": "Christian Petermann",
    "title": "Caranjo",
    "imageUrl": "Best of Latin",
    "genre": "Latin",
    "trackUrl": "https://mp3d.jamendo.com/download/track/1694049/mp32"
  },
  {
    "mediaId": "christian-petermann-patapaya",
    "artist": "Christian Petermann",
    "title": "Patapaya",
    "imageUrl": "Best of Latin",
    "genre": "Latin",
    "trackUrl": "https://mp3d.jamendo.com/download/track/1694057/mp32"
  },
  {
    "mediaId": "christian-petermann-morning-sonate",
    "artist": "Christian Petermann",
    "title": "Morning_sonate",
    "imageUrl": "Best of Latin",
    "genre": "Latin",
    "trackUrl": "https://mp3d.jamendo.com/download/track/1694054/mp32"
  },
  {
    "mediaId": "christian-petermann-palamaro",
    "artist": "Christian Petermann",
    "title": "Palamaro",
    "imageUrl": "Best of Latin",
    "genre": "Latin",
    "trackUrl": "https://mp3d.jamendo.com/download/track/1694055/mp32"
  },
  {
    "mediaId": "christian-petermann-alegria",
    "artist": "Christian Petermann",
    "title": "Alegria",
    "imageUrl": "Best of Latin",
    "genre": "Latin",
    "trackUrl": "https://mp3d.jamendo.com/download/track/1694047/mp32"
  },
  {
    "mediaId": "christian-petermann-tarantella",
    "artist": "Christian Petermann",
    "title": "Tarantella",
    "imageUrl": "Best of Latin",
    "genre": "Latin",
    "trackUrl": "https://mp3d.jamendo.com/download/track/1694062/mp32"
  },
  {
    "mediaId": "christian-petermann-moonlight-impression",
    "artist": "Christian Petermann",
    "title": "Moonlight_impression",
    "imageUrl": "Best of Latin",
    "genre": "Latin",
    "trackUrl": "https://mp3d.jamendo.com/download/track/1694053/mp32"
  },
  {
    "mediaId": "edward-jay-edward-jay-ft-wanchy-vamos-paboca-chica",
    "artist": "Edward Jay",
    "title": "Edward Jay ft Wanchy -Vamos pa\u00b4Boca chica",
    "imageUrl": "Best of Latin",
    "genre": "Latin",
    "trackUrl": "https://mp3d.jamendo.com/download/track/1589647/mp32"
  },
  {
    "mediaId": "la-mecanica-cuando",
    "artist": "La Mecanica",
    "title": "Cuando",
    "imageUrl": "Best of Latin",
    "genre": "Latin",
    "trackUrl": "https://mp3d.jamendo.com/download/track/1630771/mp32"
  },
  {
    "mediaId": "guitario-fleur-de-lys",
    "artist": "Guitario",
    "title": "Fleur de Lys",
    "imageUrl": "Best of Latin",
    "genre": "Latin",
    "trackUrl": "https://mp3d.jamendo.com/download/track/1613927/mp32"
  },
  {
    "mediaId": "the-piano-lady-lena-orsa-passion-tango",
    "artist": "The Piano Lady (Lena Orsa)",
    "title": "Passion Tango",
    "imageUrl": "Best of Latin",
    "genre": "Latin",
    "trackUrl": "https://mp3d.jamendo.com/download/track/1605093/mp32"
  },
  {
    "mediaId": "ris-charm-mi-interior",
    "artist": "Ris Charm",
    "title": "Mi Interior",
    "imageUrl": "Best of Latin",
    "genre": "Latin",
    "trackUrl": "https://mp3d.jamendo.com/download/track/1619490/mp32"
  },
  {
    "mediaId": "papicherry-contener-papicherry-ft-kali-d-jtoonz-minor-tunez-cmelody",
    "artist": "Papicherry",
    "title": "Contener - Papicherry ft. Kali D, Jtoonz, Minor Tunez & Cmelody",
    "imageUrl": "Best of Latin",
    "genre": "Latin",
    "trackUrl": "https://mp3d.jamendo.com/download/track/1612573/mp32"
  },
  {
    "mediaId": "ris-charm-ella",
    "artist": "Ris Charm",
    "title": "Ella",
    "imageUrl": "Best of Latin",
    "genre": "Latin",
    "trackUrl": "https://mp3d.jamendo.com/download/track/1619489/mp32"
  },
  {
    "mediaId": "ris-charm-mirame",
    "artist": "Ris Charm",
    "title": "Mi\u0301rame",
    "imageUrl": "Best of Latin",
    "genre": "Latin",
    "trackUrl": "https://mp3d.jamendo.com/download/track/1619492/mp32"
  },
  {
    "mediaId": "guitario-les-sanglots-longs-des-violons",
    "artist": "Guitario",
    "title": "Les sanglots longs des violons",
    "imageUrl": "Best of Latin",
    "genre": "Latin",
    "trackUrl": "https://mp3d.jamendo.com/download/track/1613921/mp32"
  },
  {
    "mediaId": "guitario-le-conquerant",
    "artist": "Guitario",
    "title": "Le conqu\u00e9rant",
    "imageUrl": "Best of Latin",
    "genre": "Latin",
    "trackUrl": "https://mp3d.jamendo.com/download/track/1613922/mp32"
  },
  {
    "mediaId": "ris-charm-yo-no-se",
    "artist": "Ris Charm",
    "title": "Yo no se\u0301",
    "imageUrl": "Best of Latin",
    "genre": "Latin",
    "trackUrl": "https://mp3d.jamendo.com/download/track/1619496/mp32"
  },
  {
    "mediaId": "ris-charm-solo-tu",
    "artist": "Ris Charm",
    "title": "So\u0301lo Tu\u0301",
    "imageUrl": "Best of Latin",
    "genre": "Latin",
    "trackUrl": "https://mp3d.jamendo.com/download/track/1619493/mp32"
  },
  {
    "mediaId": "wilson-way-la-rompe-wilson-way-feat-arabe-y-tiam",
    "artist": "Wilson Way",
    "title": "La Rompe - Wilson Way Feat Arabe y Tiam",
    "imageUrl": "Best of Latin",
    "genre": "Latin",
    "trackUrl": "https://mp3d.jamendo.com/download/track/1571156/mp32"
  },
  {
    "mediaId": "deivid-rivera-clavada-en-mi-pecho-feat-alkim-prod-by-navy",
    "artist": "Deivid Rivera",
    "title": "Clavada en mi pecho feat. Alkim (Prod by Navy)",
    "imageUrl": "Best of Latin",
    "genre": "Latin",
    "trackUrl": "https://mp3d.jamendo.com/download/track/1573507/mp32"
  },
  {
    "mediaId": "ris-charm-mil-noches",
    "artist": "Ris Charm",
    "title": "Mil Noches",
    "imageUrl": "Best of Latin",
    "genre": "Latin",
    "trackUrl": "https://mp3d.jamendo.com/download/track/1619491/mp32"
  },
  {
    "mediaId": "ris-charm-por-siempre",
    "artist": "Ris Charm",
    "title": "Por Siempre",
    "imageUrl": "Best of Latin",
    "genre": "Latin",
    "trackUrl": "https://mp3d.jamendo.com/download/track/1619495/mp32"
  },
  {
    "mediaId": "jovi-el-neycom-hookiao-que-mareo-musica-urbana-reggaeton-dembow",
    "artist": "JOVI EL NEYCOM",
    "title": "Hookiao (Que mareo) - MUSICA URBANA, REGGAETON, DEMBOW",
    "imageUrl": "Best of Latin",
    "genre": "Latin",
    "trackUrl": "https://mp3d.jamendo.com/download/track/1500748/mp32"
  },
  {
    "mediaId": "jovi-el-neycom-te-ta-sofocando-remix-trap-dembow-reggaeton-jovi-el-neycom-ft-mandrake-el-malocorita",
    "artist": "JOVI EL NEYCOM",
    "title": "TE TA SOFOCANDO (REMIX) (TRAP, DEMBOW, REGGAETON) - JOVI EL NEYCOM ft MANDRAKE (EL MALOCORITA)",
    "imageUrl": "Best of Latin",
    "genre": "Latin",
    "trackUrl": "https://mp3d.jamendo.com/download/track/1524519/mp32"
  },
  {
    "mediaId": "ris-charm-cuentame",
    "artist": "Ris Charm",
    "title": "Cue\u0301ntame",
    "imageUrl": "Best of Latin",
    "genre": "Latin",
    "trackUrl": "https://mp3d.jamendo.com/download/track/1619498/mp32"
  },
  {
    "mediaId": "paco-santiago-querido-hermano",
    "artist": "Paco Santiago",
    "title": "Querido hermano",
    "imageUrl": "Best of Latin",
    "genre": "Latin",
    "trackUrl": "https://mp3d.jamendo.com/download/track/1571733/mp32"
  },
  {
    "mediaId": "paco-santiago-serenata",
    "artist": "Paco Santiago",
    "title": "Serenata",
    "imageUrl": "Best of Latin",
    "genre": "Latin",
    "trackUrl": "https://mp3d.jamendo.com/download/track/1569507/mp32"
  },
  {
    "mediaId": "edward-jay-lucete",
    "artist": "Edward Jay",
    "title": "L\u00f9cete",
    "imageUrl": "Best of Latin",
    "genre": "Latin",
    "trackUrl": "https://mp3d.jamendo.com/download/track/1490886/mp32"
  },
  {
    "mediaId": "jovi-el-neycom-ya-tu-no-me-gustas-dancehall-reggae-reggaeton-dembow",
    "artist": "JOVI EL NEYCOM",
    "title": "YA TU NO ME GUSTAS (DANCEHALL, REGGAE, REGGAETON, DEMBOW)",
    "imageUrl": "Best of Latin",
    "genre": "Latin",
    "trackUrl": "https://mp3d.jamendo.com/download/track/1435680/mp32"
  },
  {
    "mediaId": "viejo-den-9-de-febrero",
    "artist": "Viejo Den",
    "title": "9 de Febrero",
    "imageUrl": "Best of Latin",
    "genre": "Latin",
    "trackUrl": "https://mp3d.jamendo.com/download/track/1563393/mp32"
  },
  {
    "mediaId": "duro-mambo-mi-salsa-tiene-melao",
    "artist": "DURO MAMBO",
    "title": "MI SALSA TIENE MELAO",
    "imageUrl": "Best of Latin",
    "genre": "Latin",
    "trackUrl": "https://mp3d.jamendo.com/download/track/1495218/mp32"
  },
  {
    "mediaId": "jean-merech-2-cueva-la-zingara",
    "artist": "Jean Merech",
    "title": "2 CUEVA LA ZINGARA",
    "imageUrl": "Best of Latin",
    "genre": "Latin",
    "trackUrl": "https://mp3d.jamendo.com/download/track/1540705/mp32"
  },
  {
    "mediaId": "por-vencidos-02-v",
    "artist": "Por Vencidos",
    "title": "02 V",
    "imageUrl": "Best of Latin",
    "genre": "Latin",
    "trackUrl": "https://mp3d.jamendo.com/download/track/1549114/mp32"
  },
  {
    "mediaId": "javier-gomez-bello-elige-uno",
    "artist": "Javier G\u00f3mez Bello",
    "title": "Elige uno",
    "imageUrl": "Best of Latin",
    "genre": "Latin",
    "trackUrl": "https://mp3d.jamendo.com/download/track/1536408/mp32"
  },
  {
    "mediaId": "jean-merech-8-alambra-palace",
    "artist": "Jean Merech",
    "title": "8 ALAMBRA PALACE",
    "imageUrl": "Best of Latin",
    "genre": "Latin",
    "trackUrl": "https://mp3d.jamendo.com/download/track/1540730/mp32"
  },
  {
    "mediaId": "jean-merech-5-haciendo-que-el-fuego",
    "artist": "Jean Merech",
    "title": "5 HACIENDO QUE EL FUEGO",
    "imageUrl": "Best of Latin",
    "genre": "Latin",
    "trackUrl": "https://mp3d.jamendo.com/download/track/1540734/mp32"
  },
  {
    "mediaId": "harveys-me-canse",
    "artist": "Harveys",
    "title": "Me cans\u00e9",
    "imageUrl": "Best of Latin",
    "genre": "Latin",
    "trackUrl": "https://mp3d.jamendo.com/download/track/1443344/mp32"
  },
  {
    "mediaId": "jean-merech-3-el-nino",
    "artist": "Jean Merech",
    "title": "3 EL NINO",
    "imageUrl": "Best of Latin",
    "genre": "Latin",
    "trackUrl": "https://mp3d.jamendo.com/download/track/1540733/mp32"
  },
  {
    "mediaId": "jovi-el-neycom-acabao-de-prender-reggae-reggaeton-latin",
    "artist": "JOVI EL NEYCOM",
    "title": "Acabao De Prender (REGGAE, REGGAETON, LATIN)",
    "imageUrl": "Best of Latin",
    "genre": "Latin",
    "trackUrl": "https://mp3d.jamendo.com/download/track/1465506/mp32"
  },
  {
    "mediaId": "kuda-ramilson-maia-marcelo-mira-kuda-boca-loca-feat-ramilson-maia-marcelo-mira",
    "artist": "Kuda - Ramilson Maia - Marcelo Mira",
    "title": "Kuda - Boca Loca feat. Ramilson Maia & Marcelo Mira",
    "imageUrl": "Best of Latin",
    "genre": "Latin",
    "trackUrl": "https://mp3d.jamendo.com/download/track/1451916/mp32"
  },
  {
    "mediaId": "pueto-pa-lo-mio-records-conmigo-trap-hip-hop-rap-reggaeton-urban",
    "artist": "PUETO PA LO MIO RECORDS",
    "title": "CONMIGO (TRAP, HIP HOP, RAP, REGGAETON,URBAN)",
    "imageUrl": "Best of Latin",
    "genre": "Latin",
    "trackUrl": "https://mp3d.jamendo.com/download/track/1438293/mp32"
  },
  {
    "mediaId": "edward-jay-tirame-eso-coco-ft-wanchy-nocturno",
    "artist": "Edward Jay",
    "title": "Tirame eso coco ft Wanchy Nocturno",
    "imageUrl": "Best of Latin",
    "genre": "Latin",
    "trackUrl": "https://mp3d.jamendo.com/download/track/1528983/mp32"
  },
  {
    "mediaId": "jean-merech-4-gipsy-paco",
    "artist": "Jean Merech",
    "title": "4 GIPSY PACO",
    "imageUrl": "Best of Latin",
    "genre": "Latin",
    "trackUrl": "https://mp3d.jamendo.com/download/track/1540729/mp32"
  },
  {
    "mediaId": "javier-gomez-bello-la-raspa-suave",
    "artist": "Javier G\u00f3mez Bello",
    "title": "La raspa suave",
    "imageUrl": "Best of Latin",
    "genre": "Latin",
    "trackUrl": "https://mp3d.jamendo.com/download/track/1536405/mp32"
  },
  {
    "mediaId": "tiquiplas-rumbatina-guaguancosera",
    "artist": "TIQUIPLAS",
    "title": "Rumbatina guaguancosera",
    "imageUrl": "Best of Latin",
    "genre": "Latin",
    "trackUrl": "https://mp3d.jamendo.com/download/track/1498519/mp32"
  },
  {
    "mediaId": "tulio-rangel-o-palhacinho-e-a-palhacinha",
    "artist": "T\u00falio Rangel",
    "title": "O Palhacinho e a Palhacinha",
    "imageUrl": "Best of Latin",
    "genre": "Latin",
    "trackUrl": "https://mp3d.jamendo.com/download/track/1556458/mp32"
  },
  {
    "mediaId": "jean-merech-6-melodia-de-las-noche",
    "artist": "Jean Merech",
    "title": "6 MELODIA DE LAS NOCHE",
    "imageUrl": "Best of Latin",
    "genre": "Latin",
    "trackUrl": "https://mp3d.jamendo.com/download/track/1540727/mp32"
  },
  {
    "mediaId": "tulio-rangel-andarilho",
    "artist": "T\u00falio Rangel",
    "title": "Andarilho",
    "imageUrl": "Best of Latin",
    "genre": "Latin",
    "trackUrl": "https://mp3d.jamendo.com/download/track/1556461/mp32"
  },
  {
    "mediaId": "los-cuban-boys-reciclate-evaporate-rema-que-aqui-no-pican",
    "artist": "Los Cuban Boys",
    "title": "Rec\u00edclate, evap\u00f3rate, Rema que aqu\u00ed no pican",
    "imageUrl": "Best of Latin",
    "genre": "Latin",
    "trackUrl": "https://mp3d.jamendo.com/download/track/1389077/mp32"
  },
  {
    "mediaId": "diego-noar-pra-onde-e-que-eu-vou",
    "artist": "diego Noar",
    "title": "Pra_Onde_e_Que_eu_Vou_",
    "imageUrl": "Best of Latin",
    "genre": "Latin",
    "trackUrl": "https://mp3d.jamendo.com/download/track/1327741/mp32"
  },
  {
    "mediaId": "charlie-tnk-verte-bailar",
    "artist": "CHARLIE TNK",
    "title": "VERTE BAILAR",
    "imageUrl": "Best of Latin",
    "genre": "Latin",
    "trackUrl": "https://mp3d.jamendo.com/download/track/1436518/mp32"
  },
  {
    "mediaId": "jean-merech-7-vamos-a-tocar-la-guitarra",
    "artist": "Jean Merech",
    "title": "7 VAMOS A TOCAR LA GUITARRA",
    "imageUrl": "Best of Latin",
    "genre": "Latin",
    "trackUrl": "https://mp3d.jamendo.com/download/track/1540728/mp32"
  },
  {
    "mediaId": "jan-y-su-son-latino-jan-acendra-y-su-son-latino-te-quiero-decir",
    "artist": "Jan y Su Son Latino",
    "title": "Jan Acendra y Su Son Latino - Te Quiero Decir",
    "imageUrl": "Best of Latin",
    "genre": "Latin",
    "trackUrl": "https://mp3d.jamendo.com/download/track/1456852/mp32"
  },
  {
    "mediaId": "tulio-borges-curvas",
    "artist": "T\u00falio Borges",
    "title": "Curvas",
    "imageUrl": "Best of Latin",
    "genre": "Latin",
    "trackUrl": "https://mp3d.jamendo.com/download/track/1478192/mp32"
  },
  {
    "mediaId": "jan-y-su-son-latino-jan-acendra-y-su-son-latino-regalame-una-noche",
    "artist": "Jan y Su Son Latino",
    "title": "Jan Acendra Y Su Son Latino - Regalame Una Noche",
    "imageUrl": "Best of Latin",
    "genre": "Latin",
    "trackUrl": "https://mp3d.jamendo.com/download/track/1456856/mp32"
  },
  {
    "mediaId": "marcus-rasseli-em-preto-e-branco",
    "artist": "Marcus Rasseli",
    "title": "Em preto e Branco",
    "imageUrl": "Best of Latin",
    "genre": "Latin",
    "trackUrl": "https://mp3d.jamendo.com/download/track/1340258/mp32"
  },
  {
    "mediaId": "arnaud-martin-jazabana-sweet-tania",
    "artist": "Arnaud Martin Jazabana",
    "title": "sweet tania",
    "imageUrl": "Best of Latin",
    "genre": "Latin",
    "trackUrl": "https://mp3d.jamendo.com/download/track/1048629/mp32"
  },
  {
    "mediaId": "mc-richard-temo-enamorarme",
    "artist": "Mc Richard",
    "title": "Temo Enamorarme",
    "imageUrl": "Best of Latin",
    "genre": "Latin",
    "trackUrl": "https://mp3d.jamendo.com/download/track/1342379/mp32"
  },
  {
    "mediaId": "mackenzie-la-fuerza-sola",
    "artist": "Mackenzie La Fuerza",
    "title": "Sola",
    "imageUrl": "Best of Latin",
    "genre": "Latin",
    "trackUrl": "https://mp3d.jamendo.com/download/track/1478233/mp32"
  },
  {
    "mediaId": "max-tenrom-interlude",
    "artist": "MAX TENROM",
    "title": "Interlude",
    "imageUrl": "Best of Latin",
    "genre": "Latin",
    "trackUrl": "https://mp3d.jamendo.com/download/track/1314632/mp32"
  },
  {
    "mediaId": "guy-berrier-agua-de-sevilla",
    "artist": "Guy Berrier",
    "title": "AGUA DE SEVILLA",
    "imageUrl": "Best of Latin",
    "genre": "Latin",
    "trackUrl": "https://mp3d.jamendo.com/download/track/1456737/mp32"
  },
  {
    "mediaId": "soriano-accento-mi-corazoncito-soriano-accento-prod-por-kali-d-en-la-biitrola",
    "artist": "Soriano & Accento",
    "title": "Mi Corazoncito - Soriano & Accento (Prod. por Kali D En La Biitrola)",
    "imageUrl": "Best of Latin",
    "genre": "Latin",
    "trackUrl": "https://mp3d.jamendo.com/download/track/1333293/mp32"
  },
  {
    "mediaId": "steve-raphael-vida-mia-magical-summer-night",
    "artist": "Steve Raphael",
    "title": "Vida M\u00eda - Magical Summer Night",
    "imageUrl": "Best of Latin",
    "genre": "Latin",
    "trackUrl": "https://mp3d.jamendo.com/download/track/1432300/mp32"
  },
  {
    "mediaId": "duro-mambo-duro-mambo-mami-tu-ta",
    "artist": "DURO MAMBO",
    "title": "DURO MAMBO - MAMI TU TA",
    "imageUrl": "Best of Latin",
    "genre": "Latin",
    "trackUrl": "https://mp3d.jamendo.com/download/track/1426799/mp32"
  },
  {
    "mediaId": "duro-mambo-4-duro-mambo-el-sentimiento-salsa-version",
    "artist": "DURO MAMBO",
    "title": "4 DURO MAMBO - EL SENTIMIENTO (SALSA VERSION)",
    "imageUrl": "Best of Latin",
    "genre": "Latin",
    "trackUrl": "https://mp3d.jamendo.com/download/track/1209911/mp32"
  },
  {
    "mediaId": "reole-una-peda",
    "artist": "Reole",
    "title": "Una Peda",
    "imageUrl": "Best of Latin",
    "genre": "Latin",
    "trackUrl": "https://mp3d.jamendo.com/download/track/1180118/mp32"
  },
  {
    "mediaId": "harveys-no-quiere-compromisos",
    "artist": "Harveys",
    "title": "No quiere compromisos",
    "imageUrl": "Best of Latin",
    "genre": "Latin",
    "trackUrl": "https://mp3d.jamendo.com/download/track/1446353/mp32"
  },
  {
    "mediaId": "edward-jay-solo-amigos",
    "artist": "Edward Jay",
    "title": "Solo Amigos",
    "imageUrl": "Best of Latin",
    "genre": "Latin",
    "trackUrl": "https://mp3d.jamendo.com/download/track/1486336/mp32"
  },
  {
    "mediaId": "harveys-me-canse-version-urbana",
    "artist": "Harveys",
    "title": "Me cans\u00e9 (versi\u00f3n urbana)",
    "imageUrl": "Best of Latin",
    "genre": "Latin",
    "trackUrl": "https://mp3d.jamendo.com/download/track/1461844/mp32"
  },
  {
    "mediaId": "tulio-borges-oi-rio-demais",
    "artist": "T\u00falio Borges",
    "title": "\u00d3i / Rio demais",
    "imageUrl": "Best of Latin",
    "genre": "Latin",
    "trackUrl": "https://mp3d.jamendo.com/download/track/1194611/mp32"
  },
  {
    "mediaId": "m-r-ah-o-verao",
    "artist": "M&R",
    "title": "Ah! O Verao",
    "imageUrl": "Best of Latin",
    "genre": "Latin",
    "trackUrl": "https://mp3d.jamendo.com/download/track/1480709/mp32"
  },
  {
    "mediaId": "mc-richard-como-se-pone",
    "artist": "Mc Richard",
    "title": "Como Se Pone",
    "imageUrl": "Best of Latin",
    "genre": "Latin",
    "trackUrl": "https://mp3d.jamendo.com/download/track/1342378/mp32"
  },
  {
    "mediaId": "tulio-borges-ela-levantou-os-bracos-e-eu-morri-de-amores",
    "artist": "T\u00falio Borges",
    "title": "Ela levantou os bra\u00e7os e eu morri de amores",
    "imageUrl": "Best of Latin",
    "genre": "Latin",
    "trackUrl": "https://mp3d.jamendo.com/download/track/1478198/mp32"
  },
  {
    "mediaId": "jan-y-su-son-latino-jan-acendra-y-su-son-latino-sera",
    "artist": "Jan y Su Son Latino",
    "title": "Jan Acendra y Su Son Latino - Sera",
    "imageUrl": "Best of Latin",
    "genre": "Latin",
    "trackUrl": "https://mp3d.jamendo.com/download/track/1456851/mp32"
  },
  {
    "mediaId": "nayi-rumba-loca",
    "artist": "NAYI",
    "title": "Rumba Loca",
    "imageUrl": "Best of Latin",
    "genre": "Latin",
    "trackUrl": "https://mp3d.jamendo.com/download/track/1447021/mp32"
  },
  {
    "mediaId": "duro-mambo-duro-mambo-ya-yo-no-vuelvo-a-creer",
    "artist": "DURO MAMBO",
    "title": "DURO MAMBO - YA YO NO VUELVO A CREER",
    "imageUrl": "Best of Latin",
    "genre": "Latin",
    "trackUrl": "https://mp3d.jamendo.com/download/track/1426803/mp32"
  },
  {
    "mediaId": "ctoonzmusic-baby-regresa-cmelody-ft-the-choco",
    "artist": "Ctoonzmusic",
    "title": "Baby Regresa- Cmelody Ft. The Choco",
    "imageUrl": "Best of Latin",
    "genre": "Latin",
    "trackUrl": "https://mp3d.jamendo.com/download/track/693309/mp32"
  },
  {
    "mediaId": "jovi-el-neycom-jordan-23-jovi-el-neycom-ft-melvin-eys-reggae-dembow-latin",
    "artist": "JOVI EL NEYCOM",
    "title": "JORDAN 23 - JOVI EL NEYCOM ft MELVIN EYS (REGGAE, DEMBOW, LATIN)",
    "imageUrl": "Best of Latin",
    "genre": "Latin",
    "trackUrl": "https://mp3d.jamendo.com/download/track/1471796/mp32"
  },
  {
    "mediaId": "tortuga-de-mar-vuelvo-a-respirar",
    "artist": "Tortuga de Mar",
    "title": "Vuelvo a respirar",
    "imageUrl": "Best of Latin",
    "genre": "Latin",
    "trackUrl": "https://mp3d.jamendo.com/download/track/1515909/mp32"
  },
  {
    "mediaId": "harveys-me-canse",
    "artist": "Harveys",
    "title": "Me cans\u00e9",
    "imageUrl": "Best of Latin",
    "genre": "Latin",
    "trackUrl": "https://mp3d.jamendo.com/download/track/1446351/mp32"
  },
  {
    "mediaId": "harveys-usted-se-me-llevo-la-vida-feat-blow-rasta",
    "artist": "Harveys",
    "title": "Usted se me llevo la vida (feat. Blow Rasta)",
    "imageUrl": "Best of Latin",
    "genre": "Latin",
    "trackUrl": "https://mp3d.jamendo.com/download/track/1446367/mp32"
  },
  {
    "mediaId": "moave-canto-del-ayer",
    "artist": "MOAVE",
    "title": "Canto del ayer",
    "imageUrl": "Best of Latin",
    "genre": "Latin",
    "trackUrl": "https://mp3d.jamendo.com/download/track/1312858/mp32"
  },
  {
    "mediaId": "bony-t-b-t-feat-bufalo-el-fuete",
    "artist": "Bony",
    "title": "T.B.T -  (Feat. Bufalo el Fuete)",
    "imageUrl": "Best of Latin",
    "genre": "Latin",
    "trackUrl": "https://mp3d.jamendo.com/download/track/1310681/mp32"
  },
  {
    "mediaId": "harveys-estos-celos-feat-michel-el-buenon",
    "artist": "Harveys",
    "title": "Estos celos (feat. Michel el Buenon)",
    "imageUrl": "Best of Latin",
    "genre": "Latin",
    "trackUrl": "https://mp3d.jamendo.com/download/track/1446349/mp32"
  },
  {
    "mediaId": "pasqualino-ubaldini-peniscola",
    "artist": "Pasqualino Ubaldini",
    "title": "Peniscola",
    "imageUrl": "Best of Latin",
    "genre": "Latin",
    "trackUrl": "https://mp3d.jamendo.com/download/track/1458316/mp32"
  },
  {
    "mediaId": "tortuga-de-mar-infinito",
    "artist": "Tortuga de Mar",
    "title": "Infinito",
    "imageUrl": "Best of Latin",
    "genre": "Latin",
    "trackUrl": "https://mp3d.jamendo.com/download/track/1515912/mp32"
  },
  {
    "mediaId": "frank-guerrero-y-su-grupo-ache-vamos-a-tocar-sonero",
    "artist": "Frank Guerrero y su grupo Ach\u00e9",
    "title": "Vamos A Tocar Sonero",
    "imageUrl": "Best of Latin",
    "genre": "Latin",
    "trackUrl": "https://mp3d.jamendo.com/download/track/908245/mp32"
  },
  {
    "mediaId": "harveys-seguir-viviendo",
    "artist": "Harveys",
    "title": "Seguir viviendo",
    "imageUrl": "Best of Latin",
    "genre": "Latin",
    "trackUrl": "https://mp3d.jamendo.com/download/track/1446360/mp32"
  },
  {
    "mediaId": "tiquiplas-claro-que-no",
    "artist": "TIQUIPLAS",
    "title": "Claro que no",
    "imageUrl": "Best of Latin",
    "genre": "Latin",
    "trackUrl": "https://mp3d.jamendo.com/download/track/1299403/mp32"
  },
  {
    "mediaId": "edson-el-gigo-hace-tiempo-ft-leo-fabre",
    "artist": "Edson el Gigo",
    "title": "Hace Tiempo ft Leo Fabre",
    "imageUrl": "Best of Latin",
    "genre": "Latin",
    "trackUrl": "https://mp3d.jamendo.com/download/track/1294603/mp32"
  },
  {
    "mediaId": "mackenzie-la-fuerza-vamo-alla",
    "artist": "Mackenzie La Fuerza",
    "title": "Vamo Alla",
    "imageUrl": "Best of Latin",
    "genre": "Latin",
    "trackUrl": "https://mp3d.jamendo.com/download/track/1289500/mp32"
  },
  {
    "mediaId": "duro-mambo-duro-mambo-el-toston",
    "artist": "DURO MAMBO",
    "title": "DURO MAMBO - EL TOSTON",
    "imageUrl": "Best of Latin",
    "genre": "Latin",
    "trackUrl": "https://mp3d.jamendo.com/download/track/1426790/mp32"
  },
  {
    "mediaId": "axel-antunes-anavi",
    "artist": "Axel Antunes",
    "title": "Anavi",
    "imageUrl": "Best of Latin",
    "genre": "Latin",
    "trackUrl": "https://mp3d.jamendo.com/download/track/1452546/mp32"
  },
  {
    "mediaId": "quantum-jazz-casa-noir",
    "artist": "Quantum Jazz",
    "title": "Casa Noir",
    "imageUrl": "Best of Latin",
    "genre": "Latin",
    "trackUrl": "https://mp3d.jamendo.com/download/track/355486/mp32"
  },
  {
    "mediaId": "tulio-borges-contracachimbo-da-paz",
    "artist": "T\u00falio Borges",
    "title": "Contracachimbo da paz",
    "imageUrl": "Best of Latin",
    "genre": "Latin",
    "trackUrl": "https://mp3d.jamendo.com/download/track/1478196/mp32"
  },
  {
    "mediaId": "regis-v-gronoff-high-urge",
    "artist": "R\u00e9gis V. Gronoff",
    "title": "High Urge",
    "imageUrl": "Best of Latin",
    "genre": "Latin",
    "trackUrl": "https://mp3d.jamendo.com/download/track/1270570/mp32"
  },
  {
    "mediaId": "tulio-borges-cancao-do-piaui-unido",
    "artist": "T\u00falio Borges",
    "title": "Can\u00e7\u00e3o do Piau\u00ed Unido",
    "imageUrl": "Best of Latin",
    "genre": "Latin",
    "trackUrl": "https://mp3d.jamendo.com/download/track/1206771/mp32"
  },
  {
    "mediaId": "roldan-oropeza-te-amare",
    "artist": "Roldan Oropeza",
    "title": "Te Amare",
    "imageUrl": "Best of Latin",
    "genre": "Latin",
    "trackUrl": "https://mp3d.jamendo.com/download/track/1161527/mp32"
  },
  {
    "mediaId": "the-madpix-project-fallin-down",
    "artist": "The.madpix.project",
    "title": "Fallin Down",
    "imageUrl": "Best of Latin",
    "genre": "Latin",
    "trackUrl": "https://mp3d.jamendo.com/download/track/1159089/mp32"
  },
  {
    "mediaId": "son-by-four-es-el-cristo-version-salsa",
    "artist": "Son By Four",
    "title": "Es El Cristo(version salsa)",
    "imageUrl": "Best of Latin",
    "genre": "Latin",
    "trackUrl": "https://mp3d.jamendo.com/download/track/224737/mp32"
  },
  {
    "mediaId": "arnaud-martin-jazabana-paseo",
    "artist": "Arnaud Martin Jazabana",
    "title": "Paseo",
    "imageUrl": "Best of Latin",
    "genre": "Latin",
    "trackUrl": "https://mp3d.jamendo.com/download/track/625212/mp32"
  },
  {
    "mediaId": "mundo-armenta-01-cumbia-guarare",
    "artist": "Mundo Armenta",
    "title": "01.-Cumbia Guarare",
    "imageUrl": "Best of Latin",
    "genre": "Latin",
    "trackUrl": "https://mp3d.jamendo.com/download/track/1344834/mp32"
  },
  {
    "mediaId": "tulio-borges-coco-do-pe-de-manga",
    "artist": "T\u00falio Borges",
    "title": "Coco do P\u00e9 de Manga",
    "imageUrl": "Best of Latin",
    "genre": "Latin",
    "trackUrl": "https://mp3d.jamendo.com/download/track/1206772/mp32"
  },
  {
    "mediaId": "akashic-records-flamenco-no-vox",
    "artist": "Akashic Records",
    "title": "Flamenco (no vox)",
    "imageUrl": "Best of Latin",
    "genre": "Latin",
    "trackUrl": "https://mp3d.jamendo.com/download/track/1199125/mp32"
  },
  {
    "mediaId": "texasradiofish-pirate-love-amor-pirata",
    "artist": "texasradiofish",
    "title": "Pirate Love (Amor Pirata)",
    "imageUrl": "Best of Latin",
    "genre": "Latin",
    "trackUrl": "https://mp3d.jamendo.com/download/track/1506375/mp32"
  },
  {
    "mediaId": "jan-y-su-son-latino-sera",
    "artist": "Jan y Su Son Latino",
    "title": "Ser\u00e1",
    "imageUrl": "Best of Latin",
    "genre": "Latin",
    "trackUrl": "https://mp3d.jamendo.com/download/track/1363593/mp32"
  },
  {
    "mediaId": "regis-v-gronoff-underground-in-london",
    "artist": "R\u00e9gis V. Gronoff",
    "title": "Underground in London",
    "imageUrl": "Best of Latin",
    "genre": "Latin",
    "trackUrl": "https://mp3d.jamendo.com/download/track/370259/mp32"
  },
  {
    "mediaId": "duro-mambo-duro-mambo-mambo-y-swing",
    "artist": "DURO MAMBO",
    "title": "DURO MAMBO - MAMBO Y SWING",
    "imageUrl": "Best of Latin",
    "genre": "Latin",
    "trackUrl": "https://mp3d.jamendo.com/download/track/1426798/mp32"
  },
  {
    "mediaId": "duro-mambo-duro-mambo-dame-un-chin",
    "artist": "DURO MAMBO",
    "title": "DURO MAMBO - DAME UN CHIN",
    "imageUrl": "Best of Latin",
    "genre": "Latin",
    "trackUrl": "https://mp3d.jamendo.com/download/track/1426789/mp32"
  },
  {
    "mediaId": "owem-g-menina-bossa",
    "artist": "owem_g",
    "title": "Menina bossa",
    "imageUrl": "Best of Latin",
    "genre": "Latin",
    "trackUrl": "https://mp3d.jamendo.com/download/track/1230988/mp32"
  },
  {
    "mediaId": "mundo-armenta-12corazon-de-piedra",
    "artist": "Mundo Armenta",
    "title": "12CORAZ\u00d3N DE PIEDRA",
    "imageUrl": "Best of Latin",
    "genre": "Latin",
    "trackUrl": "https://mp3d.jamendo.com/download/track/1340562/mp32"
  },
  {
    "mediaId": "al-torrado-mi-bombon-latin-house",
    "artist": "Al Torrado",
    "title": "Mi Bombo\u0301n (Latin House)",
    "imageUrl": "Best of Latin",
    "genre": "Latin",
    "trackUrl": "https://mp3d.jamendo.com/download/track/1351068/mp32"
  },
  {
    "mediaId": "el-gran-proyecto-latino-soy",
    "artist": "EL GRAN PROYECTO",
    "title": "LATINO SOY",
    "imageUrl": "Best of Latin",
    "genre": "Latin",
    "trackUrl": "https://mp3d.jamendo.com/download/track/357192/mp32"
  },
  {
    "mediaId": "ruah-flyke-iride-ruah-prod-flyke",
    "artist": "Ruah_Flyke",
    "title": "Iride Ruah [Prod. Flyke]",
    "imageUrl": "Best of Latin",
    "genre": "Latin",
    "trackUrl": "https://mp3d.jamendo.com/download/track/1438647/mp32"
  },
  {
    "mediaId": "duro-mambo-duro-mambo-que-buena-que-esta",
    "artist": "DURO MAMBO",
    "title": "DURO MAMBO - QUE BUENA QUE ESTA",
    "imageUrl": "Best of Latin",
    "genre": "Latin",
    "trackUrl": "https://mp3d.jamendo.com/download/track/1426802/mp32"
  },
  {
    "mediaId": "mc-richard-luna",
    "artist": "Mc Richard",
    "title": "Luna",
    "imageUrl": "Best of Latin",
    "genre": "Latin",
    "trackUrl": "https://mp3d.jamendo.com/download/track/1342388/mp32"
  },
  {
    "mediaId": "guy-berrier-sangria-maison",
    "artist": "Guy Berrier",
    "title": "SANGRIA MAISON",
    "imageUrl": "Best of Latin",
    "genre": "Latin",
    "trackUrl": "https://mp3d.jamendo.com/download/track/1145653/mp32"
  },
  {
    "mediaId": "emilio-pineda-el-escultor",
    "artist": "Emilio Pineda",
    "title": "El escultor.",
    "imageUrl": "Best of Latin",
    "genre": "Latin",
    "trackUrl": "https://mp3d.jamendo.com/download/track/307395/mp32"
  },
  {
    "mediaId": "fjgi-flamenco-energy",
    "artist": "FJGI",
    "title": "Flamenco Energy",
    "imageUrl": "Best of Latin",
    "genre": "Latin",
    "trackUrl": "https://mp3d.jamendo.com/download/track/1121566/mp32"
  },
  {
    "mediaId": "dani-alba-bario",
    "artist": "Dani Alba",
    "title": "Bari\u00f4",
    "imageUrl": "Best of Latin",
    "genre": "Latin",
    "trackUrl": "https://mp3d.jamendo.com/download/track/1131366/mp32"
  },
  {
    "mediaId": "butumbaba-la-luna-feat-sizu-yantra-cafe-tacuba",
    "artist": "Butumbaba",
    "title": "La Luna - feat SIzu Yantra (Caf\u00e9 Tacuba)",
    "imageUrl": "Best of Latin",
    "genre": "Latin",
    "trackUrl": "https://mp3d.jamendo.com/download/track/73426/mp32"
  },
  {
    "mediaId": "giovanny-en-tentacion",
    "artist": "Giovanny",
    "title": "En Tentaci\u00f3n",
    "imageUrl": "Best of Latin",
    "genre": "Latin",
    "trackUrl": "https://mp3d.jamendo.com/download/track/1228528/mp32"
  },
  {
    "mediaId": "javier-gomez-bello-palabras",
    "artist": "Javier G\u00f3mez Bello",
    "title": "Palabras",
    "imageUrl": "Best of Latin",
    "genre": "Latin",
    "trackUrl": "https://mp3d.jamendo.com/download/track/1379393/mp32"
  },
  {
    "mediaId": "mc-richard-incomparable",
    "artist": "Mc Richard",
    "title": "Incomparable",
    "imageUrl": "Best of Latin",
    "genre": "Latin",
    "trackUrl": "https://mp3d.jamendo.com/download/track/1342384/mp32"
  },
  {
    "mediaId": "duro-mambo-duro-mambo-el-sentimiento-prod-marshall-aquicci",
    "artist": "DURO MAMBO",
    "title": "DURO MAMBO - EL SENTIMIENTO Prod. Marshall Aquicci",
    "imageUrl": "Best of Latin",
    "genre": "Latin",
    "trackUrl": "https://mp3d.jamendo.com/download/track/1186257/mp32"
  },
  {
    "mediaId": "tulio-borges-nanquim",
    "artist": "T\u00falio Borges",
    "title": "Nanquim",
    "imageUrl": "Best of Latin",
    "genre": "Latin",
    "trackUrl": "https://mp3d.jamendo.com/download/track/1206767/mp32"
  },
  {
    "mediaId": "tulio-borges-tu",
    "artist": "T\u00falio Borges",
    "title": "Tu",
    "imageUrl": "Best of Latin",
    "genre": "Latin",
    "trackUrl": "https://mp3d.jamendo.com/download/track/1206768/mp32"
  },
  {
    "mediaId": "el-gran-proyecto-no-me-digas-que-no-el-gran-proyecto",
    "artist": "EL GRAN PROYECTO",
    "title": "NO ME DIGAS QUE NO - EL GRAN PROYECTO",
    "imageUrl": "Best of Latin",
    "genre": "Latin",
    "trackUrl": "https://mp3d.jamendo.com/download/track/357330/mp32"
  },
  {
    "mediaId": "duro-mambo-10-duro-mambo-baila",
    "artist": "DURO MAMBO",
    "title": "10 DURO MAMBO - BAILA",
    "imageUrl": "Best of Latin",
    "genre": "Latin",
    "trackUrl": "https://mp3d.jamendo.com/download/track/1209917/mp32"
  },
  {
    "mediaId": "javier-gomez-bello-dias-de-artificio",
    "artist": "Javier G\u00f3mez Bello",
    "title": "D\u00edas de artificio",
    "imageUrl": "Best of Latin",
    "genre": "Latin",
    "trackUrl": "https://mp3d.jamendo.com/download/track/1379398/mp32"
  },
  {
    "mediaId": "mundo-armenta-01mi-mejor-amigo",
    "artist": "Mundo Armenta",
    "title": "01MI MEJOR AMIGO",
    "imageUrl": "Best of Latin",
    "genre": "Latin",
    "trackUrl": "https://mp3d.jamendo.com/download/track/1340552/mp32"
  },
  {
    "mediaId": "manu-cornet-silk-road",
    "artist": "Manu Cornet",
    "title": "Silk Road",
    "imageUrl": "Best of Latin",
    "genre": "Latin",
    "trackUrl": "https://mp3d.jamendo.com/download/track/8559/mp32"
  },
  {
    "mediaId": "giovanny-la-vida-es-magia",
    "artist": "Giovanny",
    "title": "La Vida Es Magia",
    "imageUrl": "Best of Latin",
    "genre": "Latin",
    "trackUrl": "https://mp3d.jamendo.com/download/track/1228514/mp32"
  },
  {
    "mediaId": "tulio-borges-sao-joao",
    "artist": "T\u00falio Borges",
    "title": "S\u00e3o Jo\u00e3o",
    "imageUrl": "Best of Latin",
    "genre": "Latin",
    "trackUrl": "https://mp3d.jamendo.com/download/track/1206776/mp32"
  },
  {
    "mediaId": "tiquiplas-cafe-la-voluntad",
    "artist": "TIQUIPLAS",
    "title": "CAFE LA VOLUNTAD",
    "imageUrl": "Best of Latin",
    "genre": "Latin",
    "trackUrl": "https://mp3d.jamendo.com/download/track/1299383/mp32"
  },
  {
    "mediaId": "mundo-armenta-02despues-de-tanto",
    "artist": "Mundo Armenta",
    "title": "02DESP\u00daES DE TANTO",
    "imageUrl": "Best of Latin",
    "genre": "Latin",
    "trackUrl": "https://mp3d.jamendo.com/download/track/1340554/mp32"
  },
  {
    "mediaId": "marco-droetto-viento-y-revolucion",
    "artist": "Marco Droetto",
    "title": "Viento y Revolucion",
    "imageUrl": "Best of Latin",
    "genre": "Latin",
    "trackUrl": "https://mp3d.jamendo.com/download/track/1301741/mp32"
  },
  {
    "mediaId": "manu-cornet-uonin-s-piece",
    "artist": "Manu Cornet",
    "title": "Uonin's Piece",
    "imageUrl": "Best of Latin",
    "genre": "Latin",
    "trackUrl": "https://mp3d.jamendo.com/download/track/8565/mp32"
  },
  {
    "mediaId": "kalliopi-andorinha",
    "artist": "Kalliopi",
    "title": "Andorinha",
    "imageUrl": "Best of Latin",
    "genre": "Latin",
    "trackUrl": "https://mp3d.jamendo.com/download/track/83867/mp32"
  },
  {
    "mediaId": "duro-mambo-9-duro-mambo-arrasando",
    "artist": "DURO MAMBO",
    "title": "9 DURO MAMBO - ARRASANDO",
    "imageUrl": "Best of Latin",
    "genre": "Latin",
    "trackUrl": "https://mp3d.jamendo.com/download/track/1209915/mp32"
  },
  {
    "mediaId": "mundo-armenta-03-miel-amarga",
    "artist": "Mundo Armenta",
    "title": "03 Miel amarga",
    "imageUrl": "Best of Latin",
    "genre": "Latin",
    "trackUrl": "https://mp3d.jamendo.com/download/track/1333700/mp32"
  },
  {
    "mediaId": "tulio-borges-sertao-das-almas",
    "artist": "T\u00falio Borges",
    "title": "Sert\u00e3o das Almas",
    "imageUrl": "Best of Latin",
    "genre": "Latin",
    "trackUrl": "https://mp3d.jamendo.com/download/track/1206770/mp32"
  },
  {
    "mediaId": "duro-mambo-8-duro-mambo-ya-yo-no-vuelvo-a-creer",
    "artist": "DURO MAMBO",
    "title": "8 DURO MAMBO - YA YO NO VUELVO A CREER",
    "imageUrl": "Best of Latin",
    "genre": "Latin",
    "trackUrl": "https://mp3d.jamendo.com/download/track/1209914/mp32"
  },
  {
    "mediaId": "kankel-inspiracion",
    "artist": "KANKEL",
    "title": "Inspiracion",
    "imageUrl": "Best of Latin",
    "genre": "Latin",
    "trackUrl": "https://mp3d.jamendo.com/download/track/1332979/mp32"
  },
  {
    "mediaId": "dee-yan-key-vacaciones-salsa",
    "artist": "Dee Yan-Key",
    "title": "vacaciones (salsa)",
    "imageUrl": "Best of Latin",
    "genre": "Latin",
    "trackUrl": "https://mp3d.jamendo.com/download/track/1248676/mp32"
  },
  {
    "mediaId": "jan-y-su-son-latino-nunca-cambies",
    "artist": "Jan y Su Son Latino",
    "title": "Nunca Cambies",
    "imageUrl": "Best of Latin",
    "genre": "Latin",
    "trackUrl": "https://mp3d.jamendo.com/download/track/312917/mp32"
  },
  {
    "mediaId": "el-gran-proyecto-dura-dura-el-gran-proyecto",
    "artist": "EL GRAN PROYECTO",
    "title": "DURA DURA - EL GRAN PROYECTO",
    "imageUrl": "Best of Latin",
    "genre": "Latin",
    "trackUrl": "https://mp3d.jamendo.com/download/track/357361/mp32"
  },
  {
    "mediaId": "kalliopi-o-sabugeiro",
    "artist": "Kalliopi",
    "title": "O sabugeiro",
    "imageUrl": "Best of Latin",
    "genre": "Latin",
    "trackUrl": "https://mp3d.jamendo.com/download/track/83891/mp32"
  },
  {
    "mediaId": "tulio-borges-adoravel-trovador",
    "artist": "T\u00falio Borges",
    "title": "Ador\u00e1vel Trovador",
    "imageUrl": "Best of Latin",
    "genre": "Latin",
    "trackUrl": "https://mp3d.jamendo.com/download/track/1206774/mp32"
  },
  {
    "mediaId": "javier-gomez-bello-la-primavera-nunca-miente",
    "artist": "Javier G\u00f3mez Bello",
    "title": "La Primavera nunca miente",
    "imageUrl": "Best of Latin",
    "genre": "Latin",
    "trackUrl": "https://mp3d.jamendo.com/download/track/1379394/mp32"
  },
  {
    "mediaId": "jimi-sobara-fallen-angels",
    "artist": "Jimi Sobara",
    "title": "FALLEN ANGELS",
    "imageUrl": "Best of Latin",
    "genre": "Latin",
    "trackUrl": "https://mp3d.jamendo.com/download/track/811665/mp32"
  },
  {
    "mediaId": "regis-v-gronoff-april-fantasy",
    "artist": "R\u00e9gis V. Gronoff",
    "title": "April Fantasy",
    "imageUrl": "Best of Latin",
    "genre": "Latin",
    "trackUrl": "https://mp3d.jamendo.com/download/track/1270615/mp32"
  },
  {
    "mediaId": "funky-stereo-bosanova-liubvi",
    "artist": "Funky Stereo",
    "title": "\u0411\u043e\u0441\u0430\u043d\u043e\u0432\u0430 \u041b\u044e\u0431\u0432\u0438",
    "imageUrl": "Best of Latin",
    "genre": "Latin",
    "trackUrl": "https://mp3d.jamendo.com/download/track/1174122/mp32"
  },
  {
    "mediaId": "ofri-eliaz-la-serena",
    "artist": "Ofri Eliaz",
    "title": "La Serena",
    "imageUrl": "Best of Latin",
    "genre": "Latin",
    "trackUrl": "https://mp3d.jamendo.com/download/track/1287941/mp32"
  },
  {
    "mediaId": "emilio-pineda-clarobscuro",
    "artist": "Emilio Pineda",
    "title": "Clarobscuro.",
    "imageUrl": "Best of Latin",
    "genre": "Latin",
    "trackUrl": "https://mp3d.jamendo.com/download/track/301358/mp32"
  },
  {
    "mediaId": "esther-garcia-luces-rojas",
    "artist": "Esther Garcia",
    "title": "Luces Rojas",
    "imageUrl": "Best of Latin",
    "genre": "Latin",
    "trackUrl": "https://mp3d.jamendo.com/download/track/1109635/mp32"
  },
  {
    "mediaId": "oleg-o-kachanko-love-affair",
    "artist": "Oleg O. Kachanko",
    "title": "Love Affair",
    "imageUrl": "Best of Latin",
    "genre": "Latin",
    "trackUrl": "https://mp3d.jamendo.com/download/track/718307/mp32"
  },
  {
    "mediaId": "guy-berrier-sangria-coktail",
    "artist": "Guy Berrier",
    "title": "SANGRIA COKTAIL",
    "imageUrl": "Best of Latin",
    "genre": "Latin",
    "trackUrl": "https://mp3d.jamendo.com/download/track/1070646/mp32"
  },
  {
    "mediaId": "jan-y-su-son-latino-quiere-candela",
    "artist": "Jan y Su Son Latino",
    "title": "Quiere Candela",
    "imageUrl": "Best of Latin",
    "genre": "Latin",
    "trackUrl": "https://mp3d.jamendo.com/download/track/312916/mp32"
  },
  {
    "mediaId": "ddmyzik-latin-stuff",
    "artist": "DDmyzik",
    "title": "Latin Stuff",
    "imageUrl": "Best of Latin",
    "genre": "Latin",
    "trackUrl": "https://mp3d.jamendo.com/download/track/1234721/mp32"
  },
  {
    "mediaId": "regis-v-gronoff-never-ending-moons",
    "artist": "R\u00e9gis V. Gronoff",
    "title": "Never Ending Moons",
    "imageUrl": "Best of Latin",
    "genre": "Latin",
    "trackUrl": "https://mp3d.jamendo.com/download/track/1300037/mp32"
  },
  {
    "mediaId": "peergynt-lobogris-under-smooth-rain",
    "artist": "PeerGynt Lobogris",
    "title": "Under Smooth Rain",
    "imageUrl": "Best of Latin",
    "genre": "Latin",
    "trackUrl": "https://mp3d.jamendo.com/download/track/1224358/mp32"
  },
  {
    "mediaId": "udo-vismann-romantic-samba",
    "artist": "Udo Vismann",
    "title": "Romantic Samba",
    "imageUrl": "Best of Latin",
    "genre": "Latin",
    "trackUrl": "https://mp3d.jamendo.com/download/track/1066198/mp32"
  },
  {
    "mediaId": "mundo-armenta-04que-noche",
    "artist": "Mundo Armenta",
    "title": "04QUE NOCHE",
    "imageUrl": "Best of Latin",
    "genre": "Latin",
    "trackUrl": "https://mp3d.jamendo.com/download/track/1340555/mp32"
  },
  {
    "mediaId": "erizo-reflejos",
    "artist": "Erizo",
    "title": "Reflejos",
    "imageUrl": "Best of Latin",
    "genre": "Latin",
    "trackUrl": "https://mp3d.jamendo.com/download/track/305160/mp32"
  },
  {
    "mediaId": "viejo-den-primavera-vuela-con-nerea-zarate",
    "artist": "Viejo Den",
    "title": "Primavera Vuela (con Nerea Z\u00e1rate)",
    "imageUrl": "Best of Latin",
    "genre": "Latin",
    "trackUrl": "https://mp3d.jamendo.com/download/track/1254619/mp32"
  },
  {
    "mediaId": "moave-ruge-como-el-mar",
    "artist": "MOAVE",
    "title": "Ruge como el mar",
    "imageUrl": "Best of Latin",
    "genre": "Latin",
    "trackUrl": "https://mp3d.jamendo.com/download/track/1312861/mp32"
  },
  {
    "mediaId": "nationale2-burritos",
    "artist": "Nationale2",
    "title": "Burritos",
    "imageUrl": "Best of Latin",
    "genre": "Latin",
    "trackUrl": "https://mp3d.jamendo.com/download/track/1286883/mp32"
  },
  {
    "mediaId": "tulio-borges-eu-venho-vagando-no-ar",
    "artist": "T\u00falio Borges",
    "title": "Eu venho vagando no ar",
    "imageUrl": "Best of Latin",
    "genre": "Latin",
    "trackUrl": "https://mp3d.jamendo.com/download/track/1194610/mp32"
  },
  {
    "mediaId": "tulio-borges-toca-ai",
    "artist": "T\u00falio Borges",
    "title": "Toca a\u00ed",
    "imageUrl": "Best of Latin",
    "genre": "Latin",
    "trackUrl": "https://mp3d.jamendo.com/download/track/1194606/mp32"
  },
  {
    "mediaId": "el-gran-proyecto-si-te-arrepentiste-el-gran-proyecto",
    "artist": "EL GRAN PROYECTO",
    "title": "SI TE ARREPENTISTE - EL GRAN PROYECTO",
    "imageUrl": "Best of Latin",
    "genre": "Latin",
    "trackUrl": "https://mp3d.jamendo.com/download/track/357210/mp32"
  },
  {
    "mediaId": "duro-mambo-1-duro-mambo-kefu-yin-prod-by-marshall-aquicci",
    "artist": "DURO MAMBO",
    "title": "1 DURO MAMBO - KEFU YIN Prod by Marshall Aquicci",
    "imageUrl": "Best of Latin",
    "genre": "Latin",
    "trackUrl": "https://mp3d.jamendo.com/download/track/1209924/mp32"
  },
  {
    "mediaId": "marco-droetto-silence-in-action-suite-n02-in-e-minor",
    "artist": "Marco Droetto",
    "title": "Silence in Action ( suite N02 in E minor)",
    "imageUrl": "Best of Latin",
    "genre": "Latin",
    "trackUrl": "https://mp3d.jamendo.com/download/track/1301739/mp32"
  },
  {
    "mediaId": "johannmusic-gabo-shay-feat-johann-music-nadie-como-tu-1",
    "artist": "JohannMusic",
    "title": "Gabo & Shay Feat. Johann Music - Nadie como tu (1)",
    "imageUrl": "Best of Latin",
    "genre": "Latin",
    "trackUrl": "https://mp3d.jamendo.com/download/track/1058558/mp32"
  },
  {
    "mediaId": "ofri-eliaz-arvoles",
    "artist": "Ofri Eliaz",
    "title": "Arvoles",
    "imageUrl": "Best of Latin",
    "genre": "Latin",
    "trackUrl": "https://mp3d.jamendo.com/download/track/1287939/mp32"
  },
  {
    "mediaId": "rodhen-santos-juanita-morel",
    "artist": "Rodhen Santos",
    "title": "Juanita Morel",
    "imageUrl": "Best of Latin",
    "genre": "Latin",
    "trackUrl": "https://mp3d.jamendo.com/download/track/1084839/mp32"
  },
  {
    "mediaId": "jan-y-su-son-latino-jan-acendra-y-su-son-latino-y-tu-no-estas",
    "artist": "Jan y Su Son Latino",
    "title": "Jan Acendra y Su Son Latino - Y Tu No Estas",
    "imageUrl": "Best of Latin",
    "genre": "Latin",
    "trackUrl": "https://mp3d.jamendo.com/download/track/483287/mp32"
  },
  {
    "mediaId": "duro-mambo-2-duro-mambo-se-que-te-dijeron",
    "artist": "DURO MAMBO",
    "title": "2 DURO MAMBO - SE QUE TE DIJERON",
    "imageUrl": "Best of Latin",
    "genre": "Latin",
    "trackUrl": "https://mp3d.jamendo.com/download/track/1209908/mp32"
  },
  {
    "mediaId": "lar-clobsay-aurora-nei-giardini-di-spagna",
    "artist": "Lar Clobsay",
    "title": "Aurora nei giardini di Spagna",
    "imageUrl": "Best of Latin",
    "genre": "Latin",
    "trackUrl": "https://mp3d.jamendo.com/download/track/501325/mp32"
  },
  {
    "mediaId": "jan-y-su-son-latino-a-esther-forero-jan-y-su-son-latino",
    "artist": "Jan y Su Son Latino",
    "title": "A ESTHER FORERO - Jan Y Su Son Latino",
    "imageUrl": "Best of Latin",
    "genre": "Latin",
    "trackUrl": "https://mp3d.jamendo.com/download/track/964594/mp32"
  },
  {
    "mediaId": "rodhen-santos-la-maldita-cola-featuring-cuco-valoy",
    "artist": "Rodhen Santos",
    "title": "La Maldita Cola (Featuring Cuco Valoy)",
    "imageUrl": "Best of Latin",
    "genre": "Latin",
    "trackUrl": "https://mp3d.jamendo.com/download/track/1084844/mp32"
  },
  {
    "mediaId": "jan-y-su-son-latino-asi-es-el-carnaval",
    "artist": "Jan y Su Son Latino",
    "title": "Asi Es El Carnaval",
    "imageUrl": "Best of Latin",
    "genre": "Latin",
    "trackUrl": "https://mp3d.jamendo.com/download/track/312918/mp32"
  },
  {
    "mediaId": "rodhen-santos-el-merengon",
    "artist": "Rodhen Santos",
    "title": "El Merengon",
    "imageUrl": "Best of Latin",
    "genre": "Latin",
    "trackUrl": "https://mp3d.jamendo.com/download/track/1084838/mp32"
  },
  {
    "mediaId": "marco-droetto-yo-soy",
    "artist": "Marco Droetto",
    "title": "Yo soy",
    "imageUrl": "Best of Latin",
    "genre": "Latin",
    "trackUrl": "https://mp3d.jamendo.com/download/track/1301745/mp32"
  },
  {
    "mediaId": "tulio-borges-bau-de-guardados",
    "artist": "T\u00falio Borges",
    "title": "Ba\u00fa de Guardados",
    "imageUrl": "Best of Latin",
    "genre": "Latin",
    "trackUrl": "https://mp3d.jamendo.com/download/track/1206775/mp32"
  },
  {
    "mediaId": "erizo-hasta-cuando",
    "artist": "Erizo",
    "title": "Hasta Cuando",
    "imageUrl": "Best of Latin",
    "genre": "Latin",
    "trackUrl": "https://mp3d.jamendo.com/download/track/304773/mp32"
  },
  {
    "mediaId": "marco-droetto-el-mas-alto",
    "artist": "Marco Droetto",
    "title": "El mas Alto",
    "imageUrl": "Best of Latin",
    "genre": "Latin",
    "trackUrl": "https://mp3d.jamendo.com/download/track/1301742/mp32"
  },
  {
    "mediaId": "rodhen-santos-la-parranda",
    "artist": "Rodhen Santos",
    "title": "La Parranda",
    "imageUrl": "Best of Latin",
    "genre": "Latin",
    "trackUrl": "https://mp3d.jamendo.com/download/track/1084843/mp32"
  },
  {
    "mediaId": "guy-berrier-fruitdesaison",
    "artist": "Guy Berrier",
    "title": "FRUITDESAISON",
    "imageUrl": "Best of Latin",
    "genre": "Latin",
    "trackUrl": "https://mp3d.jamendo.com/download/track/1145654/mp32"
  },
  {
    "mediaId": "marco-droetto-yo-te-vere-dive",
    "artist": "Marco Droetto",
    "title": "Yo te ver\u00e8 ( dive)",
    "imageUrl": "Best of Latin",
    "genre": "Latin",
    "trackUrl": "https://mp3d.jamendo.com/download/track/1301744/mp32"
  },
  {
    "mediaId": "rodhen-santos-el-jincao",
    "artist": "Rodhen Santos",
    "title": "El Jincao",
    "imageUrl": "Best of Latin",
    "genre": "Latin",
    "trackUrl": "https://mp3d.jamendo.com/download/track/1084841/mp32"
  },
  {
    "mediaId": "jan-y-su-son-latino-jan-acendra-y-su-son-latino-el-loco-del-carnaval",
    "artist": "Jan y Su Son Latino",
    "title": "Jan Acendra y Su Son Latino - El Loco Del Carnaval",
    "imageUrl": "Best of Latin",
    "genre": "Latin",
    "trackUrl": "https://mp3d.jamendo.com/download/track/483278/mp32"
  },
  {
    "mediaId": "ofri-eliaz-la-vida-do-por-el-raki",
    "artist": "Ofri Eliaz",
    "title": "La vida do por el Raki",
    "imageUrl": "Best of Latin",
    "genre": "Latin",
    "trackUrl": "https://mp3d.jamendo.com/download/track/1287938/mp32"
  },
  {
    "mediaId": "el-gran-proyecto-vuelve-a-mi-el-gran-proyecto",
    "artist": "EL GRAN PROYECTO",
    "title": "VUELVE A MI - EL GRAN PROYECTO",
    "imageUrl": "Best of Latin",
    "genre": "Latin",
    "trackUrl": "https://mp3d.jamendo.com/download/track/357314/mp32"
  },
  {
    "mediaId": "erizo-mirando-al-frente",
    "artist": "Erizo",
    "title": "MIRANDO AL FRENTE",
    "imageUrl": "Best of Latin",
    "genre": "Latin",
    "trackUrl": "https://mp3d.jamendo.com/download/track/362371/mp32"
  },
  {
    "mediaId": "jan-y-su-son-latino-duena-de-mi-vida",
    "artist": "Jan y Su Son Latino",
    "title": "Due\u00f1a De Mi Vida",
    "imageUrl": "Best of Latin",
    "genre": "Latin",
    "trackUrl": "https://mp3d.jamendo.com/download/track/312915/mp32"
  },
  {
    "mediaId": "lokixximo-que-pasara",
    "artist": "LOKIXXIMO",
    "title": "Que Pasara",
    "imageUrl": "Best of Latin",
    "genre": "Latin",
    "trackUrl": "https://mp3d.jamendo.com/download/track/1058136/mp32"
  },
  {
    "mediaId": "lokixximo-bronx-story-feat-phaeda",
    "artist": "LOKIXXIMO",
    "title": "Bronx Story (feat Phaeda)",
    "imageUrl": "Best of Latin",
    "genre": "Latin",
    "trackUrl": "https://mp3d.jamendo.com/download/track/1058140/mp32"
  },
  {
    "mediaId": "fjgi-pretty-girl-from-chihuahua",
    "artist": "FJGI",
    "title": "Pretty Girl From Chihuahua",
    "imageUrl": "Best of Latin",
    "genre": "Latin",
    "trackUrl": "https://mp3d.jamendo.com/download/track/1116433/mp32"
  },
  {
    "mediaId": "chriss-onac-belle-vision",
    "artist": "CHRISS ONAC",
    "title": "Belle Vision",
    "imageUrl": "Best of Latin",
    "genre": "Latin",
    "trackUrl": "https://mp3d.jamendo.com/download/track/432463/mp32"
  },
  {
    "mediaId": "burning-spoon-violence-overdose",
    "artist": "burning spoon",
    "title": "Violence Overdose",
    "imageUrl": "Best of Latin",
    "genre": "Latin",
    "trackUrl": "https://mp3d.jamendo.com/download/track/1210478/mp32"
  },
  {
    "mediaId": "rodhen-santos-ella-featuring-milly-quezada",
    "artist": "Rodhen Santos",
    "title": "Ella (Featuring Milly Quezada)",
    "imageUrl": "Best of Latin",
    "genre": "Latin",
    "trackUrl": "https://mp3d.jamendo.com/download/track/1084848/mp32"
  },
  {
    "mediaId": "regis-v-gronoff-unsuspected-heroes",
    "artist": "R\u00e9gis V. Gronoff",
    "title": "Unsuspected Heroes",
    "imageUrl": "Best of Latin",
    "genre": "Latin",
    "trackUrl": "https://mp3d.jamendo.com/download/track/1270632/mp32"
  },
  {
    "mediaId": "viejo-den-pondre-tu-nombre-con-luces-desenfocadas",
    "artist": "Viejo Den",
    "title": "Pondr\u00e9 Tu Nombre (con Luces Desenfocadas)",
    "imageUrl": "Best of Latin",
    "genre": "Latin",
    "trackUrl": "https://mp3d.jamendo.com/download/track/1254617/mp32"
  },
  {
    "mediaId": "rodhen-santos-la-chiva-blanca-featuring-joseito-mateo",
    "artist": "Rodhen Santos",
    "title": "La Chiva Blanca (Featuring Joseito Mateo)",
    "imageUrl": "Best of Latin",
    "genre": "Latin",
    "trackUrl": "https://mp3d.jamendo.com/download/track/1084849/mp32"
  },
  {
    "mediaId": "rodhen-santos-lo-tuyo-es-mio-featuring-johnny-ventura",
    "artist": "Rodhen Santos",
    "title": "Lo Tuyo Es Mio (Featuring Johnny Ventura)",
    "imageUrl": "Best of Latin",
    "genre": "Latin",
    "trackUrl": "https://mp3d.jamendo.com/download/track/1084852/mp32"
  },
  {
    "mediaId": "erizo-es-vedra",
    "artist": "Erizo",
    "title": "Es Vedra",
    "imageUrl": "Best of Latin",
    "genre": "Latin",
    "trackUrl": "https://mp3d.jamendo.com/download/track/305163/mp32"
  },
  {
    "mediaId": "ofri-eliaz-kuando-el-rey-nimrod-brhm-bynv",
    "artist": "Ofri Eliaz",
    "title": "Kuando el rey Nimrod  \u05d0\u05d1\u05e8\u05d4\u05dd \u05d0\u05d1\u05d9\u05e0\u05d5",
    "imageUrl": "Best of Latin",
    "genre": "Latin",
    "trackUrl": "https://mp3d.jamendo.com/download/track/1287943/mp32"
  },
  {
    "mediaId": "rodhen-santos-pegadita-de-los-hombres-featuring-chuqui-acosta",
    "artist": "Rodhen Santos",
    "title": "Pegadita De Los Hombres (Featuring Chuqui Acosta)",
    "imageUrl": "Best of Latin",
    "genre": "Latin",
    "trackUrl": "https://mp3d.jamendo.com/download/track/1084851/mp32"
  },
  {
    "mediaId": "rodhen-santos-lena",
    "artist": "Rodhen Santos",
    "title": "Le\u00f1a",
    "imageUrl": "Best of Latin",
    "genre": "Latin",
    "trackUrl": "https://mp3d.jamendo.com/download/track/1084847/mp32"
  },
  {
    "mediaId": "el-gran-proyecto-me-equivoque-el-gran-proyecto",
    "artist": "EL GRAN PROYECTO",
    "title": "ME EQUIVOQUE - EL GRAN PROYECTO",
    "imageUrl": "Best of Latin",
    "genre": "Latin",
    "trackUrl": "https://mp3d.jamendo.com/download/track/357365/mp32"
  },
  {
    "mediaId": "regis-v-gronoff-snowflake",
    "artist": "R\u00e9gis V. Gronoff",
    "title": "Snowflake",
    "imageUrl": "Best of Latin",
    "genre": "Latin",
    "trackUrl": "https://mp3d.jamendo.com/download/track/1270574/mp32"
  },
  {
    "mediaId": "rodhen-santos-la-bailadora-featuring-ramon-orlando",
    "artist": "Rodhen Santos",
    "title": "La Bailadora (Featuring Ramon Orlando)",
    "imageUrl": "Best of Latin",
    "genre": "Latin",
    "trackUrl": "https://mp3d.jamendo.com/download/track/1084842/mp32"
  },
  {
    "mediaId": "labarcadesua-son-de-maiz",
    "artist": "LaBarcaDeSua",
    "title": "Son de ma\u00edz",
    "imageUrl": "Best of Latin",
    "genre": "Latin",
    "trackUrl": "https://mp3d.jamendo.com/download/track/74270/mp32"
  },
  {
    "mediaId": "rodhen-santos-salve-los-prado",
    "artist": "Rodhen Santos",
    "title": "Salve Los Prado",
    "imageUrl": "Best of Latin",
    "genre": "Latin",
    "trackUrl": "https://mp3d.jamendo.com/download/track/1084850/mp32"
  },
  {
    "mediaId": "jan-y-su-son-latino-hermosa",
    "artist": "Jan y Su Son Latino",
    "title": "Hermosa",
    "imageUrl": "Best of Latin",
    "genre": "Latin",
    "trackUrl": "https://mp3d.jamendo.com/download/track/312919/mp32"
  },
  {
    "mediaId": "fjgi-gypsy-passion",
    "artist": "FJGI",
    "title": "Gypsy Passion",
    "imageUrl": "Best of Latin",
    "genre": "Latin",
    "trackUrl": "https://mp3d.jamendo.com/download/track/1121560/mp32"
  },
  {
    "mediaId": "el-gran-proyecto-el-guapo-el-gran-proyecto",
    "artist": "EL GRAN PROYECTO",
    "title": "EL GUAPO - EL GRAN PROYECTO",
    "imageUrl": "Best of Latin",
    "genre": "Latin",
    "trackUrl": "https://mp3d.jamendo.com/download/track/357387/mp32"
  },
  {
    "mediaId": "mafe-saru-monologo-mafe-sanint-ruiz",
    "artist": "MaFe SaRu",
    "title": "Mon\u00f3logo (Mafe Sanint Ruiz)",
    "imageUrl": "Best of Latin",
    "genre": "Latin",
    "trackUrl": "https://mp3d.jamendo.com/download/track/329448/mp32"
  },
  {
    "mediaId": "el-gran-proyecto-no-me-conoces-aun-el-gran-proyecto",
    "artist": "EL GRAN PROYECTO",
    "title": "NO ME CONOCES AUN - EL GRAN PROYECTO",
    "imageUrl": "Best of Latin",
    "genre": "Latin",
    "trackUrl": "https://mp3d.jamendo.com/download/track/357273/mp32"
  },
  {
    "mediaId": "mafe-saru-el-que-piensa-pierde-mafe-sanint-ruiz-con-viviana-trujillo",
    "artist": "MaFe SaRu",
    "title": "El Que Piensa Pierde (Mafe Sanint Ruiz con Viviana Trujillo)",
    "imageUrl": "Best of Latin",
    "genre": "Latin",
    "trackUrl": "https://mp3d.jamendo.com/download/track/329446/mp32"
  },
  {
    "mediaId": "tiquiplas-asumelo-instrumental",
    "artist": "TIQUIPLAS",
    "title": "ASUMELO (instrumental)",
    "imageUrl": "Best of Latin",
    "genre": "Latin",
    "trackUrl": "https://mp3d.jamendo.com/download/track/1299404/mp32"
  },
  {
    "mediaId": "la-ricura-castillo-de-arena-y-miel",
    "artist": "LA RICURA",
    "title": "CASTILLO DE ARENA Y MIEL",
    "imageUrl": "Best of Latin",
    "genre": "Latin",
    "trackUrl": "https://mp3d.jamendo.com/download/track/1070209/mp32"
  }
]