[
  {
    "mediaId": "selecta-dje-aka-prophetdje-09-puppa-nadem-feat-jamanle-la-technique",
    "artist": "Selecta Dj\u00e9 aka ProphetDj\u00e9",
    "title": "09-Puppa Nadem feat Jamanle - La Technique",
    "imageUrl": "Best of Reggae",
    "genre": "Reggae",
    "trackUrl": "https://mp3d.jamendo.com/download/track/1674680/mp32"
  },
  {
    "mediaId": "deezy-deezy-take-control",
    "artist": "DEEZY",
    "title": "DEEZY-TAKE CONTROL",
    "imageUrl": "Best of Reggae",
    "genre": "Reggae",
    "trackUrl": "https://mp3d.jamendo.com/download/track/1666442/mp32"
  },
  {
    "mediaId": "selecta-dje-aka-prophetdje-01-m-syla-l-unite-a-la-rescousse-special-mix-2019-by-m-syla",
    "artist": "Selecta Dj\u00e9 aka ProphetDj\u00e9",
    "title": "01-M-Syla _ L Unit\u00e9 \u00e0 la Rescousse (special mix 2019 by M-Syla)",
    "imageUrl": "Best of Reggae",
    "genre": "Reggae",
    "trackUrl": "https://mp3d.jamendo.com/download/track/1674672/mp32"
  },
  {
    "mediaId": "klassik-frescobar-perfect-view",
    "artist": "Klassik Frescobar",
    "title": "Perfect View",
    "imageUrl": "Best of Reggae",
    "genre": "Reggae",
    "trackUrl": "https://mp3d.jamendo.com/download/track/1635987/mp32"
  },
  {
    "mediaId": "klassik-frescobar-elevator",
    "artist": "Klassik Frescobar",
    "title": "Elevator",
    "imageUrl": "Best of Reggae",
    "genre": "Reggae",
    "trackUrl": "https://mp3d.jamendo.com/download/track/1635989/mp32"
  },
  {
    "mediaId": "mama-sun-system-freedom",
    "artist": "Mama Sun System",
    "title": "Freedom",
    "imageUrl": "Best of Reggae",
    "genre": "Reggae",
    "trackUrl": "https://mp3d.jamendo.com/download/track/1615551/mp32"
  },
  {
    "mediaId": "klassik-frescobar-change-my-mind",
    "artist": "Klassik Frescobar",
    "title": "Change My Mind",
    "imageUrl": "Best of Reggae",
    "genre": "Reggae",
    "trackUrl": "https://mp3d.jamendo.com/download/track/1636004/mp32"
  },
  {
    "mediaId": "liann-morena",
    "artist": "Liann",
    "title": "Morena",
    "imageUrl": "Best of Reggae",
    "genre": "Reggae",
    "trackUrl": "https://mp3d.jamendo.com/download/track/1595226/mp32"
  },
  {
    "mediaId": "deivid-rivera-clavada-en-mi-pecho-feat-alkim-prod-by-navy",
    "artist": "Deivid Rivera",
    "title": "Clavada en mi pecho feat. Alkim (Prod by Navy)",
    "imageUrl": "Best of Reggae",
    "genre": "Reggae",
    "trackUrl": "https://mp3d.jamendo.com/download/track/1573507/mp32"
  },
  {
    "mediaId": "quentin-hannappe-keep-on",
    "artist": "Quentin Hannappe",
    "title": "Keep On",
    "imageUrl": "Best of Reggae",
    "genre": "Reggae",
    "trackUrl": "https://mp3d.jamendo.com/download/track/1552064/mp32"
  },
  {
    "mediaId": "quentin-hannappe-raise-your-voice",
    "artist": "Quentin Hannappe",
    "title": "Raise Your Voice",
    "imageUrl": "Best of Reggae",
    "genre": "Reggae",
    "trackUrl": "https://mp3d.jamendo.com/download/track/1552063/mp32"
  },
  {
    "mediaId": "paris-byzance-on-a-vu",
    "artist": "Paris byzance",
    "title": "On a vu",
    "imageUrl": "Best of Reggae",
    "genre": "Reggae",
    "trackUrl": "https://mp3d.jamendo.com/download/track/1603614/mp32"
  },
  {
    "mediaId": "jovi-el-neycom-ya-tu-no-me-gustas-dancehall-reggae-reggaeton-dembow",
    "artist": "JOVI EL NEYCOM",
    "title": "YA TU NO ME GUSTAS (DANCEHALL, REGGAE, REGGAETON, DEMBOW)",
    "imageUrl": "Best of Reggae",
    "genre": "Reggae",
    "trackUrl": "https://mp3d.jamendo.com/download/track/1435680/mp32"
  },
  {
    "mediaId": "quentin-hannappe-the-world-is-yours",
    "artist": "Quentin Hannappe",
    "title": "The World Is Yours",
    "imageUrl": "Best of Reggae",
    "genre": "Reggae",
    "trackUrl": "https://mp3d.jamendo.com/download/track/1552065/mp32"
  },
  {
    "mediaId": "francesco-roncalli-what-you-have-done",
    "artist": "Francesco Roncalli",
    "title": "What You Have Done",
    "imageUrl": "Best of Reggae",
    "genre": "Reggae",
    "trackUrl": "https://mp3d.jamendo.com/download/track/1572860/mp32"
  },
  {
    "mediaId": "black-ship-pick-me-up",
    "artist": "Black Ship",
    "title": "Pick me up",
    "imageUrl": "Best of Reggae",
    "genre": "Reggae",
    "trackUrl": "https://mp3d.jamendo.com/download/track/1352590/mp32"
  },
  {
    "mediaId": "dr-groove-gang-harmony",
    "artist": "DR GROOVE GANG",
    "title": "harmony",
    "imageUrl": "Best of Reggae",
    "genre": "Reggae",
    "trackUrl": "https://mp3d.jamendo.com/download/track/1528680/mp32"
  },
  {
    "mediaId": "ridgway-palm-trees",
    "artist": "Ridgway",
    "title": "Palm Trees",
    "imageUrl": "Best of Reggae",
    "genre": "Reggae",
    "trackUrl": "https://mp3d.jamendo.com/download/track/1401130/mp32"
  },
  {
    "mediaId": "diego-noar-pra-onde-e-que-eu-vou",
    "artist": "diego Noar",
    "title": "Pra_Onde_e_Que_eu_Vou_",
    "imageUrl": "Best of Reggae",
    "genre": "Reggae",
    "trackUrl": "https://mp3d.jamendo.com/download/track/1327741/mp32"
  },
  {
    "mediaId": "bryan-art-miss-you-bad",
    "artist": "Bryan Art",
    "title": "Miss You Bad",
    "imageUrl": "Best of Reggae",
    "genre": "Reggae",
    "trackUrl": "https://mp3d.jamendo.com/download/track/1429071/mp32"
  },
  {
    "mediaId": "stonefacepriest-hard-and-stronger",
    "artist": "stonefacepriest",
    "title": "hard and stronger",
    "imageUrl": "Best of Reggae",
    "genre": "Reggae",
    "trackUrl": "https://mp3d.jamendo.com/download/track/1445394/mp32"
  },
  {
    "mediaId": "jovi-el-neycom-plan-plan-jovi-el-neycom-ft-dj-danny-dembow-regae-latin",
    "artist": "JOVI EL NEYCOM",
    "title": "Plan Plan - Jovi el neycom Ft Dj danny (dembow, regae, latin)",
    "imageUrl": "Best of Reggae",
    "genre": "Reggae",
    "trackUrl": "https://mp3d.jamendo.com/download/track/1481633/mp32"
  },
  {
    "mediaId": "familia-reggae-dissia-time",
    "artist": "FAMILIA REGGAE",
    "title": "Dissia Time",
    "imageUrl": "Best of Reggae",
    "genre": "Reggae",
    "trackUrl": "https://mp3d.jamendo.com/download/track/1428279/mp32"
  },
  {
    "mediaId": "stonefacepriest-roots-man-stoneface-priest",
    "artist": "stonefacepriest",
    "title": "roots man - stoneface priest",
    "imageUrl": "Best of Reggae",
    "genre": "Reggae",
    "trackUrl": "https://mp3d.jamendo.com/download/track/1478306/mp32"
  },
  {
    "mediaId": "quentin-hannappe-i-wanna-be",
    "artist": "Quentin Hannappe",
    "title": "I wanna Be",
    "imageUrl": "Best of Reggae",
    "genre": "Reggae",
    "trackUrl": "https://mp3d.jamendo.com/download/track/1108495/mp32"
  },
  {
    "mediaId": "los-brodies-contigo",
    "artist": "Los Brodies",
    "title": "Contigo",
    "imageUrl": "Best of Reggae",
    "genre": "Reggae",
    "trackUrl": "https://mp3d.jamendo.com/download/track/1046599/mp32"
  },
  {
    "mediaId": "ej-rams-records-ras-extr3me-black-bird",
    "artist": "Ej Rams Records",
    "title": "Ras Extr3me - Black Bird",
    "imageUrl": "Best of Reggae",
    "genre": "Reggae",
    "trackUrl": "https://mp3d.jamendo.com/download/track/1375641/mp32"
  },
  {
    "mediaId": "anitek-durban",
    "artist": "Anitek",
    "title": "Durban",
    "imageUrl": "Best of Reggae",
    "genre": "Reggae",
    "trackUrl": "https://mp3d.jamendo.com/download/track/1319992/mp32"
  },
  {
    "mediaId": "familia-reggae-can-be-better",
    "artist": "FAMILIA REGGAE",
    "title": "Can be better",
    "imageUrl": "Best of Reggae",
    "genre": "Reggae",
    "trackUrl": "https://mp3d.jamendo.com/download/track/1428278/mp32"
  },
  {
    "mediaId": "ambrosia76-maledetto",
    "artist": "Ambrosia76",
    "title": "Maledetto!",
    "imageUrl": "Best of Reggae",
    "genre": "Reggae",
    "trackUrl": "https://mp3d.jamendo.com/download/track/1450861/mp32"
  },
  {
    "mediaId": "plex-problems",
    "artist": "PLEX",
    "title": "PROBLEMS",
    "imageUrl": "Best of Reggae",
    "genre": "Reggae",
    "trackUrl": "https://mp3d.jamendo.com/download/track/1449376/mp32"
  },
  {
    "mediaId": "organico-ridotto-marianicola",
    "artist": "Organico Ridotto",
    "title": "MariaNicola",
    "imageUrl": "Best of Reggae",
    "genre": "Reggae",
    "trackUrl": "https://mp3d.jamendo.com/download/track/1403873/mp32"
  },
  {
    "mediaId": "thrive-not-enemies",
    "artist": "Thrive",
    "title": "Not Enemies",
    "imageUrl": "Best of Reggae",
    "genre": "Reggae",
    "trackUrl": "https://mp3d.jamendo.com/download/track/1428339/mp32"
  },
  {
    "mediaId": "ridgway-fire-inside",
    "artist": "Ridgway",
    "title": "Fire Inside",
    "imageUrl": "Best of Reggae",
    "genre": "Reggae",
    "trackUrl": "https://mp3d.jamendo.com/download/track/1401171/mp32"
  },
  {
    "mediaId": "iv5-cover-me-feat-hash-april-2017-lor",
    "artist": "IV5",
    "title": "Cover Me feat. Hash - APRIL 2017 [LOR]",
    "imageUrl": "Best of Reggae",
    "genre": "Reggae",
    "trackUrl": "https://mp3d.jamendo.com/download/track/1439074/mp32"
  },
  {
    "mediaId": "los-brodies-al-despertar",
    "artist": "Los Brodies",
    "title": "Al despertar",
    "imageUrl": "Best of Reggae",
    "genre": "Reggae",
    "trackUrl": "https://mp3d.jamendo.com/download/track/1046286/mp32"
  },
  {
    "mediaId": "los-brodies-cuando-salga-el-sol",
    "artist": "Los Brodies",
    "title": "Cuando salga el sol",
    "imageUrl": "Best of Reggae",
    "genre": "Reggae",
    "trackUrl": "https://mp3d.jamendo.com/download/track/1046593/mp32"
  },
  {
    "mediaId": "familia-reggae-calling-you",
    "artist": "FAMILIA REGGAE",
    "title": "Calling you",
    "imageUrl": "Best of Reggae",
    "genre": "Reggae",
    "trackUrl": "https://mp3d.jamendo.com/download/track/1428277/mp32"
  },
  {
    "mediaId": "moon-i-mean-enough",
    "artist": "Moon I Mean",
    "title": "Enough",
    "imageUrl": "Best of Reggae",
    "genre": "Reggae",
    "trackUrl": "https://mp3d.jamendo.com/download/track/1206217/mp32"
  },
  {
    "mediaId": "yuanan-j-a-r-zoro-now-rootsy-walking-pon-my-shoes-riddim-jar-034",
    "artist": "Yuanan \"J.A.R\"",
    "title": "Zoro- Now Rootsy (Walking pon my shoes Riddim) JAR 034",
    "imageUrl": "Best of Reggae",
    "genre": "Reggae",
    "trackUrl": "https://mp3d.jamendo.com/download/track/1399377/mp32"
  },
  {
    "mediaId": "bony-t-b-t-feat-bufalo-el-fuete",
    "artist": "Bony",
    "title": "T.B.T -  (Feat. Bufalo el Fuete)",
    "imageUrl": "Best of Reggae",
    "genre": "Reggae",
    "trackUrl": "https://mp3d.jamendo.com/download/track/1310681/mp32"
  },
  {
    "mediaId": "familia-reggae-morning",
    "artist": "FAMILIA REGGAE",
    "title": "Morning",
    "imageUrl": "Best of Reggae",
    "genre": "Reggae",
    "trackUrl": "https://mp3d.jamendo.com/download/track/1428281/mp32"
  },
  {
    "mediaId": "moon-i-mean-wrong-concept",
    "artist": "Moon I Mean",
    "title": "Wrong Concept",
    "imageUrl": "Best of Reggae",
    "genre": "Reggae",
    "trackUrl": "https://mp3d.jamendo.com/download/track/1206215/mp32"
  },
  {
    "mediaId": "ridgway-barnacles",
    "artist": "Ridgway",
    "title": "Barnacles",
    "imageUrl": "Best of Reggae",
    "genre": "Reggae",
    "trackUrl": "https://mp3d.jamendo.com/download/track/1401133/mp32"
  },
  {
    "mediaId": "ridgway-brighter-days",
    "artist": "Ridgway",
    "title": "Brighter Days",
    "imageUrl": "Best of Reggae",
    "genre": "Reggae",
    "trackUrl": "https://mp3d.jamendo.com/download/track/1401127/mp32"
  },
  {
    "mediaId": "highmas-ska-one",
    "artist": "HiGhMaS",
    "title": "Ska One",
    "imageUrl": "Best of Reggae",
    "genre": "Reggae",
    "trackUrl": "https://mp3d.jamendo.com/download/track/415600/mp32"
  },
  {
    "mediaId": "sundayers-que-paso",
    "artist": "Sundayers",
    "title": "Qu\u00e9 Pas\u00f3",
    "imageUrl": "Best of Reggae",
    "genre": "Reggae",
    "trackUrl": "https://mp3d.jamendo.com/download/track/1014954/mp32"
  },
  {
    "mediaId": "ridgway-first-one-feat-celina-ventanilla",
    "artist": "Ridgway",
    "title": "First One (Feat. Celina Ventanilla)",
    "imageUrl": "Best of Reggae",
    "genre": "Reggae",
    "trackUrl": "https://mp3d.jamendo.com/download/track/1401131/mp32"
  },
  {
    "mediaId": "yuanan-j-a-r-bryan-art-knowledge-is-the-power-forward-riddim-j-a-r-026",
    "artist": "Yuanan \"J.A.R\"",
    "title": "Bryan Art - Knowledge is the Power (Forward Riddim J.A.R 026)",
    "imageUrl": "Best of Reggae",
    "genre": "Reggae",
    "trackUrl": "https://mp3d.jamendo.com/download/track/1321293/mp32"
  },
  {
    "mediaId": "yuanan-j-a-r-toviga-love-what-a-shame-strawberry-riddim-jar-035",
    "artist": "Yuanan \"J.A.R\"",
    "title": "Toviga Love-What a shame (Strawberry Riddim) JAR 035",
    "imageUrl": "Best of Reggae",
    "genre": "Reggae",
    "trackUrl": "https://mp3d.jamendo.com/download/track/1405124/mp32"
  },
  {
    "mediaId": "ridgway-faraway",
    "artist": "Ridgway",
    "title": "Faraway",
    "imageUrl": "Best of Reggae",
    "genre": "Reggae",
    "trackUrl": "https://mp3d.jamendo.com/download/track/1401132/mp32"
  },
  {
    "mediaId": "familia-reggae-lion-in-the-jungle",
    "artist": "FAMILIA REGGAE",
    "title": "Lion in the jungle",
    "imageUrl": "Best of Reggae",
    "genre": "Reggae",
    "trackUrl": "https://mp3d.jamendo.com/download/track/1334764/mp32"
  },
  {
    "mediaId": "black-ship-outside-of-history",
    "artist": "Black Ship",
    "title": "Outside of History",
    "imageUrl": "Best of Reggae",
    "genre": "Reggae",
    "trackUrl": "https://mp3d.jamendo.com/download/track/1337444/mp32"
  },
  {
    "mediaId": "highmas-since-our-childout-feat-diazel",
    "artist": "HiGhMaS",
    "title": "Since our Childout (Feat Diazel)",
    "imageUrl": "Best of Reggae",
    "genre": "Reggae",
    "trackUrl": "https://mp3d.jamendo.com/download/track/415596/mp32"
  },
  {
    "mediaId": "black-ship-by-yourself",
    "artist": "Black Ship",
    "title": "By yourself",
    "imageUrl": "Best of Reggae",
    "genre": "Reggae",
    "trackUrl": "https://mp3d.jamendo.com/download/track/1336729/mp32"
  },
  {
    "mediaId": "familia-reggae-inna-dis-ya-time",
    "artist": "FAMILIA REGGAE",
    "title": "Inna Dis Ya Time",
    "imageUrl": "Best of Reggae",
    "genre": "Reggae",
    "trackUrl": "https://mp3d.jamendo.com/download/track/1334747/mp32"
  },
  {
    "mediaId": "familia-reggae-jah-creo-zion",
    "artist": "FAMILIA REGGAE",
    "title": "Jah Creo Zion",
    "imageUrl": "Best of Reggae",
    "genre": "Reggae",
    "trackUrl": "https://mp3d.jamendo.com/download/track/1334756/mp32"
  },
  {
    "mediaId": "kingston-blues-high-on-your-love",
    "artist": "Kingston Blues",
    "title": "High on your love",
    "imageUrl": "Best of Reggae",
    "genre": "Reggae",
    "trackUrl": "https://mp3d.jamendo.com/download/track/1191150/mp32"
  },
  {
    "mediaId": "sundayers-dentro-de-mi",
    "artist": "Sundayers",
    "title": "Dentro De Mi",
    "imageUrl": "Best of Reggae",
    "genre": "Reggae",
    "trackUrl": "https://mp3d.jamendo.com/download/track/537116/mp32"
  },
  {
    "mediaId": "kene-busma-jah-medication",
    "artist": "KENE BUSMA",
    "title": "Jah Medication",
    "imageUrl": "Best of Reggae",
    "genre": "Reggae",
    "trackUrl": "https://mp3d.jamendo.com/download/track/615526/mp32"
  },
  {
    "mediaId": "guy-berrier-reggmannfree",
    "artist": "Guy Berrier",
    "title": "REGGmANNFree",
    "imageUrl": "Best of Reggae",
    "genre": "Reggae",
    "trackUrl": "https://mp3d.jamendo.com/download/track/1172868/mp32"
  },
  {
    "mediaId": "loudog-music",
    "artist": "Loudog",
    "title": "Music",
    "imageUrl": "Best of Reggae",
    "genre": "Reggae",
    "trackUrl": "https://mp3d.jamendo.com/download/track/231013/mp32"
  },
  {
    "mediaId": "akashic-records-lighthearted-ukulele-reggae",
    "artist": "Akashic Records",
    "title": "Lighthearted Ukulele Reggae",
    "imageUrl": "Best of Reggae",
    "genre": "Reggae",
    "trackUrl": "https://mp3d.jamendo.com/download/track/1007256/mp32"
  },
  {
    "mediaId": "sundayers-no-nos-pertenece",
    "artist": "Sundayers",
    "title": "No Nos Pertenece",
    "imageUrl": "Best of Reggae",
    "genre": "Reggae",
    "trackUrl": "https://mp3d.jamendo.com/download/track/537121/mp32"
  },
  {
    "mediaId": "la-olla-express-la-olla-express",
    "artist": "LA OLLA EXPRESS",
    "title": "La Olla Express",
    "imageUrl": "Best of Reggae",
    "genre": "Reggae",
    "trackUrl": "https://mp3d.jamendo.com/download/track/415208/mp32"
  },
  {
    "mediaId": "danielle-helena-poetry",
    "artist": "Danielle Helena",
    "title": "Poetry",
    "imageUrl": "Best of Reggae",
    "genre": "Reggae",
    "trackUrl": "https://mp3d.jamendo.com/download/track/1358656/mp32"
  },
  {
    "mediaId": "lohstana-david-quand-je-serai-grand-instrumental-version",
    "artist": "L\u00f6hstana David",
    "title": "Quand je serai grand - INSTRUMENTAL VERSION",
    "imageUrl": "Best of Reggae",
    "genre": "Reggae",
    "trackUrl": "https://mp3d.jamendo.com/download/track/785434/mp32"
  },
  {
    "mediaId": "sundayers-la-otra-historia",
    "artist": "Sundayers",
    "title": "La Otra Historia",
    "imageUrl": "Best of Reggae",
    "genre": "Reggae",
    "trackUrl": "https://mp3d.jamendo.com/download/track/537127/mp32"
  },
  {
    "mediaId": "sundayers-no-lo-comprendo",
    "artist": "Sundayers",
    "title": "No Lo Comprendo",
    "imageUrl": "Best of Reggae",
    "genre": "Reggae",
    "trackUrl": "https://mp3d.jamendo.com/download/track/537118/mp32"
  },
  {
    "mediaId": "familia-reggae-jah-creo-zion",
    "artist": "FAMILIA REGGAE",
    "title": "Jah creo Zion",
    "imageUrl": "Best of Reggae",
    "genre": "Reggae",
    "trackUrl": "https://mp3d.jamendo.com/download/track/207779/mp32"
  },
  {
    "mediaId": "familia-reggae-she-know-it",
    "artist": "FAMILIA REGGAE",
    "title": "She Know It",
    "imageUrl": "Best of Reggae",
    "genre": "Reggae",
    "trackUrl": "https://mp3d.jamendo.com/download/track/1334762/mp32"
  },
  {
    "mediaId": "sundayers-quien-debe-a-quien",
    "artist": "Sundayers",
    "title": "\u00bfQui\u00e9n Debe a Qui\u00e9n?",
    "imageUrl": "Best of Reggae",
    "genre": "Reggae",
    "trackUrl": "https://mp3d.jamendo.com/download/track/537123/mp32"
  },
  {
    "mediaId": "kara-square-and-piero-peluche-recall-instrumental",
    "artist": "Kara Square and Piero Peluche",
    "title": "Recall (Instrumental)",
    "imageUrl": "Best of Reggae",
    "genre": "Reggae",
    "trackUrl": "https://mp3d.jamendo.com/download/track/1167888/mp32"
  },
  {
    "mediaId": "butumbaba-la-luna-feat-sizu-yantra-cafe-tacuba",
    "artist": "Butumbaba",
    "title": "La Luna - feat SIzu Yantra (Caf\u00e9 Tacuba)",
    "imageUrl": "Best of Reggae",
    "genre": "Reggae",
    "trackUrl": "https://mp3d.jamendo.com/download/track/73426/mp32"
  },
  {
    "mediaId": "familia-reggae-siguiendo-el-camino",
    "artist": "FAMILIA REGGAE",
    "title": "Siguiendo el camino",
    "imageUrl": "Best of Reggae",
    "genre": "Reggae",
    "trackUrl": "https://mp3d.jamendo.com/download/track/1334763/mp32"
  },
  {
    "mediaId": "julio-d-in-testa-te",
    "artist": "Julio D",
    "title": "In Testa Te",
    "imageUrl": "Best of Reggae",
    "genre": "Reggae",
    "trackUrl": "https://mp3d.jamendo.com/download/track/1291776/mp32"
  },
  {
    "mediaId": "chewbaska-tequilight",
    "artist": "Chewbaska",
    "title": "Tequilight",
    "imageUrl": "Best of Reggae",
    "genre": "Reggae",
    "trackUrl": "https://mp3d.jamendo.com/download/track/187625/mp32"
  },
  {
    "mediaId": "familia-reggae-great-sensations",
    "artist": "FAMILIA REGGAE",
    "title": "Great Sensations",
    "imageUrl": "Best of Reggae",
    "genre": "Reggae",
    "trackUrl": "https://mp3d.jamendo.com/download/track/1334749/mp32"
  },
  {
    "mediaId": "slap-stick-reggae-reggae",
    "artist": "Slap Stick",
    "title": "Reggae Reggae",
    "imageUrl": "Best of Reggae",
    "genre": "Reggae",
    "trackUrl": "https://mp3d.jamendo.com/download/track/30259/mp32"
  },
  {
    "mediaId": "yuanan-j-a-r-andreas-andersson-aka-ante-freedom-forward-riddim-j-a-r-027",
    "artist": "Yuanan \"J.A.R\"",
    "title": "Andreas Andersson Aka Ante-Freedom (Forward Riddim) J.A.R 027",
    "imageUrl": "Best of Reggae",
    "genre": "Reggae",
    "trackUrl": "https://mp3d.jamendo.com/download/track/1321294/mp32"
  },
  {
    "mediaId": "familia-reggae-do-it-right",
    "artist": "FAMILIA REGGAE",
    "title": "Do It Right",
    "imageUrl": "Best of Reggae",
    "genre": "Reggae",
    "trackUrl": "https://mp3d.jamendo.com/download/track/1334761/mp32"
  },
  {
    "mediaId": "los-brodies-groove-rock-reggae",
    "artist": "Los Brodies",
    "title": "Groove rock reggae",
    "imageUrl": "Best of Reggae",
    "genre": "Reggae",
    "trackUrl": "https://mp3d.jamendo.com/download/track/1046594/mp32"
  },
  {
    "mediaId": "familia-reggae-what-you-gonna-do",
    "artist": "FAMILIA REGGAE",
    "title": "What you gonna do",
    "imageUrl": "Best of Reggae",
    "genre": "Reggae",
    "trackUrl": "https://mp3d.jamendo.com/download/track/1334753/mp32"
  },
  {
    "mediaId": "bryan-art-knowledge-is-the-power",
    "artist": "Bryan Art",
    "title": "Knowledge Is The Power",
    "imageUrl": "Best of Reggae",
    "genre": "Reggae",
    "trackUrl": "https://mp3d.jamendo.com/download/track/1251118/mp32"
  },
  {
    "mediaId": "los-brodies-esta-en-el-aire",
    "artist": "Los Brodies",
    "title": "Esta\u0301 en el aire",
    "imageUrl": "Best of Reggae",
    "genre": "Reggae",
    "trackUrl": "https://mp3d.jamendo.com/download/track/1046589/mp32"
  },
  {
    "mediaId": "abdou-day-jaoranary",
    "artist": "Abdou Day",
    "title": "Jaoranary",
    "imageUrl": "Best of Reggae",
    "genre": "Reggae",
    "trackUrl": "https://mp3d.jamendo.com/download/track/1120/mp32"
  },
  {
    "mediaId": "n-d-monroe-coffee-signs",
    "artist": "N.D. Monroe",
    "title": "Coffee signs",
    "imageUrl": "Best of Reggae",
    "genre": "Reggae",
    "trackUrl": "https://mp3d.jamendo.com/download/track/206712/mp32"
  },
  {
    "mediaId": "baroni-one-time-so-high",
    "artist": "Baroni One Time",
    "title": "So High",
    "imageUrl": "Best of Reggae",
    "genre": "Reggae",
    "trackUrl": "https://mp3d.jamendo.com/download/track/297657/mp32"
  },
  {
    "mediaId": "natty-i-dubliftment",
    "artist": "Natty I",
    "title": "Dubliftment",
    "imageUrl": "Best of Reggae",
    "genre": "Reggae",
    "trackUrl": "https://mp3d.jamendo.com/download/track/112990/mp32"
  },
  {
    "mediaId": "familia-reggae-lion-in-the-jungle",
    "artist": "FAMILIA REGGAE",
    "title": "Lion in the Jungle",
    "imageUrl": "Best of Reggae",
    "genre": "Reggae",
    "trackUrl": "https://mp3d.jamendo.com/download/track/207774/mp32"
  },
  {
    "mediaId": "buffel-reggae-in-the-air",
    "artist": "B\u00fcffel",
    "title": "Reggae in the air",
    "imageUrl": "Best of Reggae",
    "genre": "Reggae",
    "trackUrl": "https://mp3d.jamendo.com/download/track/1160602/mp32"
  },
  {
    "mediaId": "victoria-caffe-busy-days",
    "artist": "Victoria Caff\u00e8",
    "title": "Busy Days",
    "imageUrl": "Best of Reggae",
    "genre": "Reggae",
    "trackUrl": "https://mp3d.jamendo.com/download/track/716983/mp32"
  },
  {
    "mediaId": "abdou-day-tia-hody",
    "artist": "Abdou Day",
    "title": "Tia Hody",
    "imageUrl": "Best of Reggae",
    "genre": "Reggae",
    "trackUrl": "https://mp3d.jamendo.com/download/track/1112/mp32"
  },
  {
    "mediaId": "sundayers-el-sonido-del-mar",
    "artist": "Sundayers",
    "title": "El Sonido Del Mar",
    "imageUrl": "Best of Reggae",
    "genre": "Reggae",
    "trackUrl": "https://mp3d.jamendo.com/download/track/1014955/mp32"
  },
  {
    "mediaId": "yuanan-j-a-r-toviga-love-breakfast-babanswer-riddim-prod-by-j-a-r",
    "artist": "Yuanan \"J.A.R\"",
    "title": "Toviga love-Breakfast (Babanswer riddim) Prod. By J.A.R",
    "imageUrl": "Best of Reggae",
    "genre": "Reggae",
    "trackUrl": "https://mp3d.jamendo.com/download/track/1164458/mp32"
  },
  {
    "mediaId": "los-brodies-el-mundo-es-un-escenario",
    "artist": "Los Brodies",
    "title": "El mundo es un escenario",
    "imageUrl": "Best of Reggae",
    "genre": "Reggae",
    "trackUrl": "https://mp3d.jamendo.com/download/track/1046285/mp32"
  },
  {
    "mediaId": "we-dem-no-more-conquest",
    "artist": "We&Dem",
    "title": "No More Conquest",
    "imageUrl": "Best of Reggae",
    "genre": "Reggae",
    "trackUrl": "https://mp3d.jamendo.com/download/track/90138/mp32"
  },
  {
    "mediaId": "conway-hambone-f-lame-non-lame-compliant-mix",
    "artist": "Conway Hambone",
    "title": "F -LAME  (non lame compliant mix)",
    "imageUrl": "Best of Reggae",
    "genre": "Reggae",
    "trackUrl": "https://mp3d.jamendo.com/download/track/1244446/mp32"
  },
  {
    "mediaId": "keep-cool-vibration-be-rasta",
    "artist": "Keep Cool Vibration",
    "title": "Be rasta",
    "imageUrl": "Best of Reggae",
    "genre": "Reggae",
    "trackUrl": "https://mp3d.jamendo.com/download/track/10674/mp32"
  },
  {
    "mediaId": "ridgway-trust-me",
    "artist": "Ridgway",
    "title": "Trust Me",
    "imageUrl": "Best of Reggae",
    "genre": "Reggae",
    "trackUrl": "https://mp3d.jamendo.com/download/track/1401134/mp32"
  },
  {
    "mediaId": "ant-on-wax-love-inna-di-club",
    "artist": "Ant on Wax",
    "title": "Love Inna Di Club",
    "imageUrl": "Best of Reggae",
    "genre": "Reggae",
    "trackUrl": "https://mp3d.jamendo.com/download/track/892001/mp32"
  },
  {
    "mediaId": "papapapou-raiegaie",
    "artist": "papapapou",
    "title": "raiegaie",
    "imageUrl": "Best of Reggae",
    "genre": "Reggae",
    "trackUrl": "https://mp3d.jamendo.com/download/track/1178289/mp32"
  },
  {
    "mediaId": "michele-candotti-dove-non-batte-il-sole",
    "artist": "michele candotti",
    "title": "Dove non batte il sole",
    "imageUrl": "Best of Reggae",
    "genre": "Reggae",
    "trackUrl": "https://mp3d.jamendo.com/download/track/1275979/mp32"
  },
  {
    "mediaId": "king-dubby-dynamic-dub",
    "artist": "King Dubby",
    "title": "Dynamic Dub",
    "imageUrl": "Best of Reggae",
    "genre": "Reggae",
    "trackUrl": "https://mp3d.jamendo.com/download/track/26563/mp32"
  },
  {
    "mediaId": "baroni-one-time-matha",
    "artist": "Baroni One Time",
    "title": "Matha",
    "imageUrl": "Best of Reggae",
    "genre": "Reggae",
    "trackUrl": "https://mp3d.jamendo.com/download/track/297647/mp32"
  },
  {
    "mediaId": "ctoonzmusic-amor-puro-ronald-jda",
    "artist": "Ctoonzmusic",
    "title": "Amor Puro - Ronald JDA",
    "imageUrl": "Best of Reggae",
    "genre": "Reggae",
    "trackUrl": "https://mp3d.jamendo.com/download/track/1134316/mp32"
  },
  {
    "mediaId": "oneness-get-on-board",
    "artist": "Oneness",
    "title": "Get On Board",
    "imageUrl": "Best of Reggae",
    "genre": "Reggae",
    "trackUrl": "https://mp3d.jamendo.com/download/track/462203/mp32"
  },
  {
    "mediaId": "taxi-brouss-01-01-yaye",
    "artist": "Taxi Brouss'",
    "title": "01 01 - Yaye",
    "imageUrl": "Best of Reggae",
    "genre": "Reggae",
    "trackUrl": "https://mp3d.jamendo.com/download/track/84498/mp32"
  },
  {
    "mediaId": "los-brodies-dime",
    "artist": "Los Brodies",
    "title": "Dime",
    "imageUrl": "Best of Reggae",
    "genre": "Reggae",
    "trackUrl": "https://mp3d.jamendo.com/download/track/1046592/mp32"
  },
  {
    "mediaId": "john-russell-sweeter-than-sugarcane",
    "artist": "John Russell",
    "title": "Sweeter Than Sugarcane",
    "imageUrl": "Best of Reggae",
    "genre": "Reggae",
    "trackUrl": "https://mp3d.jamendo.com/download/track/1332597/mp32"
  },
  {
    "mediaId": "baroni-one-time-me-wanna-know",
    "artist": "Baroni One Time",
    "title": "Me Wanna Know",
    "imageUrl": "Best of Reggae",
    "genre": "Reggae",
    "trackUrl": "https://mp3d.jamendo.com/download/track/297658/mp32"
  },
  {
    "mediaId": "don-valdes-tout-va-trop-vite",
    "artist": "DON VALDES",
    "title": "Tout va trop vite",
    "imageUrl": "Best of Reggae",
    "genre": "Reggae",
    "trackUrl": "https://mp3d.jamendo.com/download/track/617329/mp32"
  },
  {
    "mediaId": "baroni-one-time-distance",
    "artist": "Baroni One Time",
    "title": "Distance",
    "imageUrl": "Best of Reggae",
    "genre": "Reggae",
    "trackUrl": "https://mp3d.jamendo.com/download/track/297655/mp32"
  },
  {
    "mediaId": "yuanan-j-a-r-toviga-love-overstand-prod-by-j-a-r",
    "artist": "Yuanan \"J.A.R\"",
    "title": "Toviga Love-Overstand Prod. BY J.A.R",
    "imageUrl": "Best of Reggae",
    "genre": "Reggae",
    "trackUrl": "https://mp3d.jamendo.com/download/track/1151905/mp32"
  },
  {
    "mediaId": "reole-crush-di-road",
    "artist": "Reole",
    "title": "Crush Di Road",
    "imageUrl": "Best of Reggae",
    "genre": "Reggae",
    "trackUrl": "https://mp3d.jamendo.com/download/track/1316247/mp32"
  },
  {
    "mediaId": "fluxo-prece",
    "artist": "Fluxo",
    "title": "Prece",
    "imageUrl": "Best of Reggae",
    "genre": "Reggae",
    "trackUrl": "https://mp3d.jamendo.com/download/track/179683/mp32"
  },
  {
    "mediaId": "los-brodies-adios-muy-buenas",
    "artist": "Los Brodies",
    "title": "Adios muy buenas",
    "imageUrl": "Best of Reggae",
    "genre": "Reggae",
    "trackUrl": "https://mp3d.jamendo.com/download/track/1046600/mp32"
  },
  {
    "mediaId": "keep-cool-vibration-day-after-day",
    "artist": "Keep Cool Vibration",
    "title": "Day after day",
    "imageUrl": "Best of Reggae",
    "genre": "Reggae",
    "trackUrl": "https://mp3d.jamendo.com/download/track/10672/mp32"
  },
  {
    "mediaId": "wepys-mermaid-parade",
    "artist": "WEPYS",
    "title": "Mermaid Parade",
    "imageUrl": "Best of Reggae",
    "genre": "Reggae",
    "trackUrl": "https://mp3d.jamendo.com/download/track/967151/mp32"
  },
  {
    "mediaId": "los-brodies-huyen",
    "artist": "Los Brodies",
    "title": "Huyen",
    "imageUrl": "Best of Reggae",
    "genre": "Reggae",
    "trackUrl": "https://mp3d.jamendo.com/download/track/1046590/mp32"
  },
  {
    "mediaId": "los-brodies-quedate",
    "artist": "Los Brodies",
    "title": "Que\u0301date",
    "imageUrl": "Best of Reggae",
    "genre": "Reggae",
    "trackUrl": "https://mp3d.jamendo.com/download/track/1046598/mp32"
  },
  {
    "mediaId": "don-valdes-les-kings-de-ce-royaume-feat-jah-children",
    "artist": "DON VALDES",
    "title": "Les Kings de ce Royaume (feat. Jah Children)",
    "imageUrl": "Best of Reggae",
    "genre": "Reggae",
    "trackUrl": "https://mp3d.jamendo.com/download/track/617335/mp32"
  },
  {
    "mediaId": "los-brodies-singing-reggae",
    "artist": "Los Brodies",
    "title": "Singing reggae",
    "imageUrl": "Best of Reggae",
    "genre": "Reggae",
    "trackUrl": "https://mp3d.jamendo.com/download/track/1046591/mp32"
  },
  {
    "mediaId": "san-jyla-gaya",
    "artist": "San'jyla",
    "title": "gaya",
    "imageUrl": "Best of Reggae",
    "genre": "Reggae",
    "trackUrl": "https://mp3d.jamendo.com/download/track/187465/mp32"
  },
  {
    "mediaId": "don-valdes-i-love-reggae",
    "artist": "DON VALDES",
    "title": "I Love Reggae",
    "imageUrl": "Best of Reggae",
    "genre": "Reggae",
    "trackUrl": "https://mp3d.jamendo.com/download/track/617330/mp32"
  },
  {
    "mediaId": "reole-oh-god",
    "artist": "Reole",
    "title": "Oh God",
    "imageUrl": "Best of Reggae",
    "genre": "Reggae",
    "trackUrl": "https://mp3d.jamendo.com/download/track/1027266/mp32"
  },
  {
    "mediaId": "don-valdes-tu-sais-man",
    "artist": "DON VALDES",
    "title": "Tu sais Man",
    "imageUrl": "Best of Reggae",
    "genre": "Reggae",
    "trackUrl": "https://mp3d.jamendo.com/download/track/617342/mp32"
  },
  {
    "mediaId": "yuanan-j-a-r-donde-estan",
    "artist": "Yuanan \"J.A.R\"",
    "title": "Donde estan",
    "imageUrl": "Best of Reggae",
    "genre": "Reggae",
    "trackUrl": "https://mp3d.jamendo.com/download/track/814946/mp32"
  },
  {
    "mediaId": "yuanan-j-a-r-lucha",
    "artist": "Yuanan \"J.A.R\"",
    "title": "Lucha",
    "imageUrl": "Best of Reggae",
    "genre": "Reggae",
    "trackUrl": "https://mp3d.jamendo.com/download/track/814945/mp32"
  },
  {
    "mediaId": "king-dubby-ordinary-man",
    "artist": "King Dubby",
    "title": "Ordinary man",
    "imageUrl": "Best of Reggae",
    "genre": "Reggae",
    "trackUrl": "https://mp3d.jamendo.com/download/track/996094/mp32"
  },
  {
    "mediaId": "familia-reggae-directo-a-zion",
    "artist": "FAMILIA REGGAE",
    "title": "Directo a zion",
    "imageUrl": "Best of Reggae",
    "genre": "Reggae",
    "trackUrl": "https://mp3d.jamendo.com/download/track/688136/mp32"
  },
  {
    "mediaId": "la-olla-express-la-batalla",
    "artist": "LA OLLA EXPRESS",
    "title": "La Batalla",
    "imageUrl": "Best of Reggae",
    "genre": "Reggae",
    "trackUrl": "https://mp3d.jamendo.com/download/track/415050/mp32"
  },
  {
    "mediaId": "aspencat-l-herencia",
    "artist": "Aspencat",
    "title": "L'her\u00e8ncia",
    "imageUrl": "Best of Reggae",
    "genre": "Reggae",
    "trackUrl": "https://mp3d.jamendo.com/download/track/773260/mp32"
  },
  {
    "mediaId": "sundayers-agarra-tu-suerte",
    "artist": "Sundayers",
    "title": "Agarra Tu Suerte",
    "imageUrl": "Best of Reggae",
    "genre": "Reggae",
    "trackUrl": "https://mp3d.jamendo.com/download/track/537122/mp32"
  },
  {
    "mediaId": "drunksouls-no-more-fighting",
    "artist": "Drunksouls",
    "title": "No more fighting",
    "imageUrl": "Best of Reggae",
    "genre": "Reggae",
    "trackUrl": "https://mp3d.jamendo.com/download/track/150207/mp32"
  },
  {
    "mediaId": "zamalska-dance-cleopatra",
    "artist": "ZamalSka",
    "title": "dance cleopatra",
    "imageUrl": "Best of Reggae",
    "genre": "Reggae",
    "trackUrl": "https://mp3d.jamendo.com/download/track/488291/mp32"
  },
  {
    "mediaId": "familia-reggae-wath-you-gonna-do",
    "artist": "FAMILIA REGGAE",
    "title": "Wath you gonna do",
    "imageUrl": "Best of Reggae",
    "genre": "Reggae",
    "trackUrl": "https://mp3d.jamendo.com/download/track/208032/mp32"
  },
  {
    "mediaId": "el-santo-dale-que-dale-el-santo-lc-star",
    "artist": "EL SANTO",
    "title": "dale que dale - El Santo - LC STAR",
    "imageUrl": "Best of Reggae",
    "genre": "Reggae",
    "trackUrl": "https://mp3d.jamendo.com/download/track/382561/mp32"
  },
  {
    "mediaId": "familia-reggae-hermanos-en-hermandad",
    "artist": "FAMILIA REGGAE",
    "title": "Hermanos en hermandad",
    "imageUrl": "Best of Reggae",
    "genre": "Reggae",
    "trackUrl": "https://mp3d.jamendo.com/download/track/688135/mp32"
  },
  {
    "mediaId": "yuanan-j-a-r-tu-frialdad-version-triana",
    "artist": "Yuanan \"J.A.R\"",
    "title": "Tu Frialdad (version Triana)",
    "imageUrl": "Best of Reggae",
    "genre": "Reggae",
    "trackUrl": "https://mp3d.jamendo.com/download/track/814953/mp32"
  },
  {
    "mediaId": "the-dada-weatherman-all-my-love",
    "artist": "The Dada Weatherman",
    "title": "All My Love",
    "imageUrl": "Best of Reggae",
    "genre": "Reggae",
    "trackUrl": "https://mp3d.jamendo.com/download/track/941156/mp32"
  },
  {
    "mediaId": "loudog-another-day",
    "artist": "Loudog",
    "title": "Another Day",
    "imageUrl": "Best of Reggae",
    "genre": "Reggae",
    "trackUrl": "https://mp3d.jamendo.com/download/track/262926/mp32"
  },
  {
    "mediaId": "familia-reggae-juntos-es-mejor",
    "artist": "FAMILIA REGGAE",
    "title": "Juntos es mejor",
    "imageUrl": "Best of Reggae",
    "genre": "Reggae",
    "trackUrl": "https://mp3d.jamendo.com/download/track/207786/mp32"
  },
  {
    "mediaId": "familia-reggae-burning-fyah",
    "artist": "FAMILIA REGGAE",
    "title": "Burning fyah",
    "imageUrl": "Best of Reggae",
    "genre": "Reggae",
    "trackUrl": "https://mp3d.jamendo.com/download/track/208021/mp32"
  },
  {
    "mediaId": "kahina-pulsion-reaction",
    "artist": "Kahina",
    "title": "Pulsion Reaction",
    "imageUrl": "Best of Reggae",
    "genre": "Reggae",
    "trackUrl": "https://mp3d.jamendo.com/download/track/168674/mp32"
  },
  {
    "mediaId": "labarcadesua-ni-pensarte",
    "artist": "LaBarcaDeSua",
    "title": "Ni pensarte",
    "imageUrl": "Best of Reggae",
    "genre": "Reggae",
    "trackUrl": "https://mp3d.jamendo.com/download/track/74271/mp32"
  },
  {
    "mediaId": "familia-reggae-she-was-a-leader",
    "artist": "FAMILIA REGGAE",
    "title": "She was a leader",
    "imageUrl": "Best of Reggae",
    "genre": "Reggae",
    "trackUrl": "https://mp3d.jamendo.com/download/track/207996/mp32"
  },
  {
    "mediaId": "sundayers-intentando-destacar",
    "artist": "Sundayers",
    "title": "Intentando Destacar",
    "imageUrl": "Best of Reggae",
    "genre": "Reggae",
    "trackUrl": "https://mp3d.jamendo.com/download/track/537125/mp32"
  },
  {
    "mediaId": "familia-reggae-heartless-vampire",
    "artist": "FAMILIA REGGAE",
    "title": "Heartless Vampire",
    "imageUrl": "Best of Reggae",
    "genre": "Reggae",
    "trackUrl": "https://mp3d.jamendo.com/download/track/207812/mp32"
  },
  {
    "mediaId": "familia-reggae-ayudame-senor",
    "artist": "FAMILIA REGGAE",
    "title": "ayudame se\u00f1or",
    "imageUrl": "Best of Reggae",
    "genre": "Reggae",
    "trackUrl": "https://mp3d.jamendo.com/download/track/208133/mp32"
  },
  {
    "mediaId": "sundayers-sundayers",
    "artist": "Sundayers",
    "title": "Sundayers",
    "imageUrl": "Best of Reggae",
    "genre": "Reggae",
    "trackUrl": "https://mp3d.jamendo.com/download/track/537128/mp32"
  },
  {
    "mediaId": "los-brodies-bad-media",
    "artist": "Los Brodies",
    "title": "Bad media",
    "imageUrl": "Best of Reggae",
    "genre": "Reggae",
    "trackUrl": "https://mp3d.jamendo.com/download/track/1046595/mp32"
  },
  {
    "mediaId": "familia-reggae-do-it-right",
    "artist": "FAMILIA REGGAE",
    "title": "Do it right",
    "imageUrl": "Best of Reggae",
    "genre": "Reggae",
    "trackUrl": "https://mp3d.jamendo.com/download/track/207811/mp32"
  },
  {
    "mediaId": "sundayers-oh-my-cat",
    "artist": "Sundayers",
    "title": "Oh My Cat!",
    "imageUrl": "Best of Reggae",
    "genre": "Reggae",
    "trackUrl": "https://mp3d.jamendo.com/download/track/537119/mp32"
  },
  {
    "mediaId": "butumbaba-el-duende",
    "artist": "Butumbaba",
    "title": "El Duende",
    "imageUrl": "Best of Reggae",
    "genre": "Reggae",
    "trackUrl": "https://mp3d.jamendo.com/download/track/458040/mp32"
  },
  {
    "mediaId": "conway-hambone-get-it-on-track",
    "artist": "Conway Hambone",
    "title": "Get it on track",
    "imageUrl": "Best of Reggae",
    "genre": "Reggae",
    "trackUrl": "https://mp3d.jamendo.com/download/track/1046907/mp32"
  },
  {
    "mediaId": "familia-reggae-she-knows-it",
    "artist": "FAMILIA REGGAE",
    "title": "She knows it",
    "imageUrl": "Best of Reggae",
    "genre": "Reggae",
    "trackUrl": "https://mp3d.jamendo.com/download/track/208148/mp32"
  },
  {
    "mediaId": "sundayers-cogelo",
    "artist": "Sundayers",
    "title": "\u00a1C\u00f3gelo!",
    "imageUrl": "Best of Reggae",
    "genre": "Reggae",
    "trackUrl": "https://mp3d.jamendo.com/download/track/537117/mp32"
  },
  {
    "mediaId": "le-nez-tordu-exil",
    "artist": "Le Nez Tordu",
    "title": "exil",
    "imageUrl": "Best of Reggae",
    "genre": "Reggae",
    "trackUrl": "https://mp3d.jamendo.com/download/track/348298/mp32"
  },
  {
    "mediaId": "los-brodies-problemas-en-el-paraiso",
    "artist": "Los Brodies",
    "title": "Problemas en el paraiso",
    "imageUrl": "Best of Reggae",
    "genre": "Reggae",
    "trackUrl": "https://mp3d.jamendo.com/download/track/1046596/mp32"
  },
  {
    "mediaId": "sundayers-en-la-calma",
    "artist": "Sundayers",
    "title": "En La Calma",
    "imageUrl": "Best of Reggae",
    "genre": "Reggae",
    "trackUrl": "https://mp3d.jamendo.com/download/track/537120/mp32"
  },
  {
    "mediaId": "zamalska-catching-the-sun",
    "artist": "ZamalSka",
    "title": "catching the sun",
    "imageUrl": "Best of Reggae",
    "genre": "Reggae",
    "trackUrl": "https://mp3d.jamendo.com/download/track/488317/mp32"
  },
  {
    "mediaId": "alessandro-mobilia-poleman-sugnu-sicilianu",
    "artist": "ALESSANDRO MOBILIA",
    "title": "Poleman - Sugnu Sicilianu",
    "imageUrl": "Best of Reggae",
    "genre": "Reggae",
    "trackUrl": "https://mp3d.jamendo.com/download/track/469290/mp32"
  },
  {
    "mediaId": "taxi-brouss-04-04-nani-bokondey",
    "artist": "Taxi Brouss'",
    "title": "04 04 - Nani Bokondey",
    "imageUrl": "Best of Reggae",
    "genre": "Reggae",
    "trackUrl": "https://mp3d.jamendo.com/download/track/84495/mp32"
  },
  {
    "mediaId": "familia-reggae-creciendo-en-ti",
    "artist": "FAMILIA REGGAE",
    "title": "Creciendo en ti",
    "imageUrl": "Best of Reggae",
    "genre": "Reggae",
    "trackUrl": "https://mp3d.jamendo.com/download/track/208109/mp32"
  },
  {
    "mediaId": "kahina-ilz",
    "artist": "Kahina",
    "title": "ILZ",
    "imageUrl": "Best of Reggae",
    "genre": "Reggae",
    "trackUrl": "https://mp3d.jamendo.com/download/track/168656/mp32"
  },
  {
    "mediaId": "los-brodies-suben",
    "artist": "Los Brodies",
    "title": "Suben",
    "imageUrl": "Best of Reggae",
    "genre": "Reggae",
    "trackUrl": "https://mp3d.jamendo.com/download/track/1046597/mp32"
  },
  {
    "mediaId": "leido-whisper",
    "artist": "Le\u00efdo",
    "title": "Whisper",
    "imageUrl": "Best of Reggae",
    "genre": "Reggae",
    "trackUrl": "https://mp3d.jamendo.com/download/track/120557/mp32"
  },
  {
    "mediaId": "sly-collins-jjc",
    "artist": "Sly COLLINS",
    "title": "JJC",
    "imageUrl": "Best of Reggae",
    "genre": "Reggae",
    "trackUrl": "https://mp3d.jamendo.com/download/track/452586/mp32"
  },
  {
    "mediaId": "akerui-phish",
    "artist": "AkerUi",
    "title": "Phish",
    "imageUrl": "Best of Reggae",
    "genre": "Reggae",
    "trackUrl": "https://mp3d.jamendo.com/download/track/28110/mp32"
  },
  {
    "mediaId": "drunksouls-pain-of-life",
    "artist": "Drunksouls",
    "title": "Pain of Life",
    "imageUrl": "Best of Reggae",
    "genre": "Reggae",
    "trackUrl": "https://mp3d.jamendo.com/download/track/150202/mp32"
  },
  {
    "mediaId": "yuanan-j-a-r-yuanan-miedo",
    "artist": "Yuanan \"J.A.R\"",
    "title": "Yuanan - Miedo",
    "imageUrl": "Best of Reggae",
    "genre": "Reggae",
    "trackUrl": "https://mp3d.jamendo.com/download/track/814951/mp32"
  },
  {
    "mediaId": "dubosmium-hya-ghrami-dub-art",
    "artist": "Dubosmium",
    "title": "Hya Ghrami (Dub Art)",
    "imageUrl": "Best of Reggae",
    "genre": "Reggae",
    "trackUrl": "https://mp3d.jamendo.com/download/track/22725/mp32"
  },
  {
    "mediaId": "san-jyla-fraternite",
    "artist": "San'jyla",
    "title": "fraternite",
    "imageUrl": "Best of Reggae",
    "genre": "Reggae",
    "trackUrl": "https://mp3d.jamendo.com/download/track/187511/mp32"
  },
  {
    "mediaId": "we-dem-largos-dias",
    "artist": "We&Dem",
    "title": "Largos D\u00edas",
    "imageUrl": "Best of Reggae",
    "genre": "Reggae",
    "trackUrl": "https://mp3d.jamendo.com/download/track/90119/mp32"
  },
  {
    "mediaId": "highmas-the-baot-rocks-long-intro-version",
    "artist": "HiGhMaS",
    "title": "The Baot Rocks (long intro version)",
    "imageUrl": "Best of Reggae",
    "genre": "Reggae",
    "trackUrl": "https://mp3d.jamendo.com/download/track/415602/mp32"
  },
  {
    "mediaId": "king-dubby-dubcool",
    "artist": "King Dubby",
    "title": "dubcool",
    "imageUrl": "Best of Reggae",
    "genre": "Reggae",
    "trackUrl": "https://mp3d.jamendo.com/download/track/263385/mp32"
  },
  {
    "mediaId": "kahina-a-book",
    "artist": "Kahina",
    "title": "A Book",
    "imageUrl": "Best of Reggae",
    "genre": "Reggae",
    "trackUrl": "https://mp3d.jamendo.com/download/track/168644/mp32"
  },
  {
    "mediaId": "butumbaba-puerta-dimenzional-feat-actitud-maria-marta",
    "artist": "Butumbaba",
    "title": "Puerta Dimenzional feat. Actitud Maria Marta",
    "imageUrl": "Best of Reggae",
    "genre": "Reggae",
    "trackUrl": "https://mp3d.jamendo.com/download/track/73425/mp32"
  },
  {
    "mediaId": "el-santo-dispara-el-santo-lc-star",
    "artist": "EL SANTO",
    "title": "dispara - El Santo - LC STAR",
    "imageUrl": "Best of Reggae",
    "genre": "Reggae",
    "trackUrl": "https://mp3d.jamendo.com/download/track/382567/mp32"
  },
  {
    "mediaId": "king-dubby-a-crazy-version",
    "artist": "King Dubby",
    "title": "A crazy version",
    "imageUrl": "Best of Reggae",
    "genre": "Reggae",
    "trackUrl": "https://mp3d.jamendo.com/download/track/20945/mp32"
  },
  {
    "mediaId": "we-dem-penitentiary",
    "artist": "We&Dem",
    "title": "Penitentiary",
    "imageUrl": "Best of Reggae",
    "genre": "Reggae",
    "trackUrl": "https://mp3d.jamendo.com/download/track/90131/mp32"
  },
  {
    "mediaId": "san-jyla-les-medias",
    "artist": "San'jyla",
    "title": "Les medias",
    "imageUrl": "Best of Reggae",
    "genre": "Reggae",
    "trackUrl": "https://mp3d.jamendo.com/download/track/187466/mp32"
  },
  {
    "mediaId": "we-dem-let-them-grow",
    "artist": "We&Dem",
    "title": "Let them grow",
    "imageUrl": "Best of Reggae",
    "genre": "Reggae",
    "trackUrl": "https://mp3d.jamendo.com/download/track/90118/mp32"
  },
  {
    "mediaId": "la-olla-express-aeropuerto",
    "artist": "LA OLLA EXPRESS",
    "title": "Aeropuerto",
    "imageUrl": "Best of Reggae",
    "genre": "Reggae",
    "trackUrl": "https://mp3d.jamendo.com/download/track/415083/mp32"
  },
  {
    "mediaId": "king-dubby-a-zen-dub",
    "artist": "King Dubby",
    "title": "A Zen Dub",
    "imageUrl": "Best of Reggae",
    "genre": "Reggae",
    "trackUrl": "https://mp3d.jamendo.com/download/track/20943/mp32"
  },
  {
    "mediaId": "abdou-day-who-are-you",
    "artist": "Abdou Day",
    "title": "Who are you ?",
    "imageUrl": "Best of Reggae",
    "genre": "Reggae",
    "trackUrl": "https://mp3d.jamendo.com/download/track/1113/mp32"
  },
  {
    "mediaId": "abdou-day-ma-foi",
    "artist": "Abdou Day",
    "title": "Ma foi",
    "imageUrl": "Best of Reggae",
    "genre": "Reggae",
    "trackUrl": "https://mp3d.jamendo.com/download/track/1110/mp32"
  },
  {
    "mediaId": "taxi-brouss-03-03-la-valsa",
    "artist": "Taxi Brouss'",
    "title": "03 03 - La Valsa",
    "imageUrl": "Best of Reggae",
    "genre": "Reggae",
    "trackUrl": "https://mp3d.jamendo.com/download/track/84494/mp32"
  },
  {
    "mediaId": "abdou-day-andeha-ahia-at-sika",
    "artist": "Abdou Day",
    "title": "Andeha Ahia At Sika ?",
    "imageUrl": "Best of Reggae",
    "genre": "Reggae",
    "trackUrl": "https://mp3d.jamendo.com/download/track/1118/mp32"
  },
  {
    "mediaId": "king-dubby-a-peacefull-dub",
    "artist": "King Dubby",
    "title": "A peacefull Dub",
    "imageUrl": "Best of Reggae",
    "genre": "Reggae",
    "trackUrl": "https://mp3d.jamendo.com/download/track/996096/mp32"
  },
  {
    "mediaId": "sundayers-si-mueves",
    "artist": "Sundayers",
    "title": "Si Mueves...",
    "imageUrl": "Best of Reggae",
    "genre": "Reggae",
    "trackUrl": "https://mp3d.jamendo.com/download/track/537126/mp32"
  },
  {
    "mediaId": "abdou-day-hypocrites",
    "artist": "Abdou Day",
    "title": "Hypocrites",
    "imageUrl": "Best of Reggae",
    "genre": "Reggae",
    "trackUrl": "https://mp3d.jamendo.com/download/track/1114/mp32"
  }
]