[
  {
    "mediaId": "j-syreus-bach-lesser-faith",
    "artist": "J. Syreus Bach",
    "title": "Lesser Faith",
    "imageUrl": "Ability to Break ~ Energetic Tracks",
    "genre": "Symphony, Piano",
    "trackUrl": "https://files.freemusicarchive.org/storage-freemusicarchive-org/music/no_curator/J_Syreus_Bach/Ability_to_Break__Energetic_Tracks/J_Syreus_Bach_-_Lesser_Faith.mp3"
  },
  {
    "mediaId": "mid-air-machine-ampheral-text-notification",
    "artist": "Mid-Air Machine",
    "title": "Ampheral ~ Text Notification",
    "imageUrl": "Vibrations ~ Text & Alarm Notification Songs",
    "genre": "New Wave, Symphony, Piano",
    "trackUrl": "https://files.freemusicarchive.org/storage-freemusicarchive-org/music/no_curator/Mid-Air_Machine/Vibrations__Text__Alarm_Notification_Songs/Mid-Air_Machine_-_Ampheral__Text_Notification.mp3"
  },
  {
    "mediaId": "mid-air-machine-relaxed-out-text-notification",
    "artist": "Mid-Air Machine",
    "title": "Relaxed Out ~ Text Notification",
    "imageUrl": "Vibrations ~ Text & Alarm Notification Songs",
    "genre": "New Wave, Symphony, Piano",
    "trackUrl": "https://files.freemusicarchive.org/storage-freemusicarchive-org/music/ccCommunity/Mid-Air_Machine/Vibrations__Text__Alarm_Notification_Songs/Mid-Air_Machine_-_Relaxed_Out__Text_Notification.mp3"
  },
  {
    "mediaId": "mid-air-machine-haste-fragment-text-notification",
    "artist": "Mid-Air Machine",
    "title": "Haste Fragment ~ Text Notification",
    "imageUrl": "Vibrations ~ Text & Alarm Notification Songs",
    "genre": "Electronic, New Wave, Symphony",
    "trackUrl": "https://files.freemusicarchive.org/storage-freemusicarchive-org/music/no_curator/Mid-Air_Machine/Vibrations__Text__Alarm_Notification_Songs/Mid-Air_Machine_-_Haste_Fragment__Text_Notification.mp3"
  },
  {
    "mediaId": "xylo-ziko-phase-2",
    "artist": "Xylo-Ziko",
    "title": "Phase 2",
    "imageUrl": "Minimal",
    "genre": "Minimalism, Contemporary Classical, Instrumental",
    "trackUrl": "https://files.freemusicarchive.org/storage-freemusicarchive-org/music/Nul_Tiel_Records/Xylo-Ziko/Minimal/Xylo-Ziko_-_02_-_Phase_2.mp3"
  },
  {
    "mediaId": "mid-air-machine-at-least-it-is",
    "artist": "Mid-Air Machine",
    "title": "At Least It Is",
    "imageUrl": "Everywhere Outside ~ World Music",
    "genre": "African, Piano, Jungle",
    "trackUrl": "https://files.freemusicarchive.org/storage-freemusicarchive-org/music/ccCommunity/Mid-Air_Machine/Everywhere_Outside__World_Music/Mid-Air_Machine_-_At_Least_It_Is.mp3"
  },
  {
    "mediaId": "j-syreus-bach-goodbye-grandmother",
    "artist": "J. Syreus Bach",
    "title": "Goodbye, Grandmother",
    "imageUrl": "It Rains ~ Abstract Jazz",
    "genre": "Jazz, New Age, Piano",
    "trackUrl": "https://files.freemusicarchive.org/storage-freemusicarchive-org/music/no_curator/J_Syreus_Bach/It_Rains__Abstract_Jazz/J_Syreus_Bach_-_Goodbye_Grandmother.mp3"
  },
  {
    "mediaId": "kai-engel-homeroad",
    "artist": "Kai Engel",
    "title": "Homeroad",
    "imageUrl": "Satin",
    "genre": "Classical, Soundtrack, Ambient, Trip-Hop",
    "trackUrl": "https://files.freemusicarchive.org/storage-freemusicarchive-org/music/ccCommunity/Kai_Engel/Satin/Kai_Engel_-_09_-_Homeroad.mp3"
  },
  {
    "mediaId": "kai-engel-interception",
    "artist": "Kai Engel",
    "title": "Interception",
    "imageUrl": "Satin",
    "genre": "Classical, Soundtrack, Ambient, Trip-Hop",
    "trackUrl": "https://files.freemusicarchive.org/storage-freemusicarchive-org/music/ccCommunity/Kai_Engel/Satin/Kai_Engel_-_07_-_Interception.mp3"
  },
  {
    "mediaId": "kai-engel-sentinel",
    "artist": "Kai Engel",
    "title": "Sentinel",
    "imageUrl": "Satin",
    "genre": "Classical, Soundtrack, Ambient, Trip-Hop",
    "trackUrl": "https://files.freemusicarchive.org/storage-freemusicarchive-org/music/ccCommunity/Kai_Engel/Satin/Kai_Engel_-_04_-_Sentinel.mp3"
  },
  {
    "mediaId": "kai-engel-great-expectations",
    "artist": "Kai Engel",
    "title": "Great Expectations",
    "imageUrl": "Satin",
    "genre": "Classical, Soundtrack, Ambient, Trip-Hop",
    "trackUrl": "https://files.freemusicarchive.org/storage-freemusicarchive-org/music/ccCommunity/Kai_Engel/Satin/Kai_Engel_-_05_-_Great_Expectations.mp3"
  },
  {
    "mediaId": "kai-engel-downfall",
    "artist": "Kai Engel",
    "title": "Downfall",
    "imageUrl": "Satin",
    "genre": "Classical, Soundtrack, Ambient, Trip-Hop",
    "trackUrl": "https://files.freemusicarchive.org/storage-freemusicarchive-org/music/ccCommunity/Kai_Engel/Satin/Kai_Engel_-_08_-_Downfall.mp3"
  },
  {
    "mediaId": "kai-engel-augmentations",
    "artist": "Kai Engel",
    "title": "Augmentations",
    "imageUrl": "Satin",
    "genre": "Classical, Soundtrack, Ambient, Synth Pop, Instrumental",
    "trackUrl": "https://files.freemusicarchive.org/storage-freemusicarchive-org/music/ccCommunity/Kai_Engel/Satin/Kai_Engel_-_01_-_Augmentations.mp3"
  },
  {
    "mediaId": "kai-engel-illumination",
    "artist": "Kai Engel",
    "title": "Illumination",
    "imageUrl": "Satin",
    "genre": "Classical, Soundtrack, Ambient, Trip-Hop",
    "trackUrl": "https://files.freemusicarchive.org/storage-freemusicarchive-org/music/no_curator/Kai_Engel/Satin/Kai_Engel_-_02_-_Illumination.mp3"
  },
  {
    "mediaId": "kai-engel-cabaret",
    "artist": "Kai Engel",
    "title": "Cabaret",
    "imageUrl": "Satin",
    "genre": "Classical, Soundtrack, Ambient, Trip-Hop",
    "trackUrl": "https://files.freemusicarchive.org/storage-freemusicarchive-org/music/ccCommunity/Kai_Engel/Satin/Kai_Engel_-_10_-_Cabaret.mp3"
  },
  {
    "mediaId": "kai-engel-contention",
    "artist": "Kai Engel",
    "title": "Contention",
    "imageUrl": "Satin",
    "genre": "Classical, Soundtrack, Ambient, Trip-Hop",
    "trackUrl": "https://files.freemusicarchive.org/storage-freemusicarchive-org/music/ccCommunity/Kai_Engel/Satin/Kai_Engel_-_03_-_Contention.mp3"
  },
  {
    "mediaId": "kai-engel-dark-alleys",
    "artist": "Kai Engel",
    "title": "Dark Alleys",
    "imageUrl": "Satin",
    "genre": "Classical, Soundtrack, Ambient, Trip-Hop",
    "trackUrl": "https://files.freemusicarchive.org/storage-freemusicarchive-org/music/ccCommunity/Kai_Engel/Satin/Kai_Engel_-_06_-_Dark_Alleys.mp3"
  },
  {
    "mediaId": "the-ghost-in-your-piano-climb",
    "artist": "The Ghost in Your Piano",
    "title": "Climb",
    "imageUrl": "The Ghost in your piano",
    "genre": "Piano",
    "trackUrl": "https://files.freemusicarchive.org/storage-freemusicarchive-org/music/Ziklibrenbib/The_Ghost_in_Your_Piano/The_Ghost_in_your_piano/The_Ghost_in_Your_Piano_-_01_-_Climb.mp3"
  },
  {
    "mediaId": "the-ghost-in-your-piano-adventure",
    "artist": "The Ghost in Your Piano",
    "title": "Adventure",
    "imageUrl": "The Ghost in your piano",
    "genre": "Piano",
    "trackUrl": "https://files.freemusicarchive.org/storage-freemusicarchive-org/music/Ziklibrenbib/The_Ghost_in_Your_Piano/The_Ghost_in_your_piano/The_Ghost_in_Your_Piano_-_03_-_Adventure.mp3"
  },
  {
    "mediaId": "the-ghost-in-your-piano-lullaby",
    "artist": "The Ghost in Your Piano",
    "title": "Lullaby",
    "imageUrl": "The Ghost in your piano",
    "genre": "Piano",
    "trackUrl": "https://files.freemusicarchive.org/storage-freemusicarchive-org/music/Ziklibrenbib/The_Ghost_in_Your_Piano/The_Ghost_in_your_piano/The_Ghost_in_Your_Piano_-_04_-_Lullaby.mp3"
  }
]