[
  {
    "mediaId": "mid-air-machine-at-least-it-is",
    "artist": "Mid-Air Machine",
    "title": "At Least It Is",
    "imageUrl": "Everywhere Outside ~ World Music",
    "genre": "African, Piano, Jungle",
    "trackUrl": "https://files.freemusicarchive.org/storage-freemusicarchive-org/music/ccCommunity/Mid-Air_Machine/Everywhere_Outside__World_Music/Mid-Air_Machine_-_At_Least_It_Is.mp3"
  },
  {
    "mediaId": "mid-air-machine-burn-it-down",
    "artist": "Mid-Air Machine",
    "title": "Burn It Down",
    "imageUrl": "Everywhere Outside ~ World Music",
    "genre": "Electronic, Experimental Pop, North African",
    "trackUrl": "https://files.freemusicarchive.org/storage-freemusicarchive-org/music/ccCommunity/Mid-Air_Machine/Everywhere_Outside__World_Music/Mid-Air_Machine_-_Burn_It_Down.mp3"
  },
  {
    "mediaId": "springtide-we-are-heading-to-the-east",
    "artist": "springtide",
    "title": "We Are Heading to the East",
    "imageUrl": "Sounds strange, weird, but unmistakably romantic Vol.1",
    "genre": "International, Post-Rock, New Wave, Instrumental",
    "trackUrl": "https://files.freemusicarchive.org/storage-freemusicarchive-org/music/Music_for_Video/springtide/Sounds_strange_weird_but_unmistakably_romantic_Vol1/springtide_-_03_-_We_Are_Heading_to_the_East.mp3"
  },
  {
    "mediaId": "frequency-decree-sometimes",
    "artist": "Frequency Decree",
    "title": "Sometimes",
    "imageUrl": "Compilation",
    "genre": "Electronic, Soundtrack, Reggae - Dub",
    "trackUrl": "https://files.freemusicarchive.org/storage-freemusicarchive-org/music/Nul_Tiel_Records/Frequency_Decree/Compilation/Frequency_Decree_-_05_-_Sometimes.mp3"
  },
  {
    "mediaId": "frequency-decree-platypus",
    "artist": "Frequency Decree",
    "title": "Platypus",
    "imageUrl": "Compilation",
    "genre": "Electronic, Soundtrack, Reggae - Dub",
    "trackUrl": "https://files.freemusicarchive.org/storage-freemusicarchive-org/music/Nul_Tiel_Records/Frequency_Decree/Compilation/Frequency_Decree_-_06_-_Platypus.mp3"
  },
  {
    "mediaId": "frequency-decree-echo-lab",
    "artist": "Frequency Decree",
    "title": "Echo Lab",
    "imageUrl": "Compilation",
    "genre": "Electronic, Soundtrack, Reggae - Dub",
    "trackUrl": "https://files.freemusicarchive.org/storage-freemusicarchive-org/music/Nul_Tiel_Records/Frequency_Decree/Compilation/Frequency_Decree_-_08_-_Echo_Lab.mp3"
  },
  {
    "mediaId": "frequency-decree-chip-fire",
    "artist": "Frequency Decree",
    "title": "Chip Fire",
    "imageUrl": "Compilation",
    "genre": "Electronic, Soundtrack, Reggae - Dub",
    "trackUrl": "https://files.freemusicarchive.org/storage-freemusicarchive-org/music/Nul_Tiel_Records/Frequency_Decree/Compilation/Frequency_Decree_-_04_-_Chip_Fire.mp3"
  },
  {
    "mediaId": "frequency-decree-are-you-ready",
    "artist": "Frequency Decree",
    "title": "Are You Ready",
    "imageUrl": "Compilation",
    "genre": "Electronic, Soundtrack, Reggae - Dub",
    "trackUrl": "https://files.freemusicarchive.org/storage-freemusicarchive-org/music/Nul_Tiel_Records/Frequency_Decree/Compilation/Frequency_Decree_-_01_-_Are_You_Ready.mp3"
  },
  {
    "mediaId": "springtide-paper-lanterns-in-the-dusk",
    "artist": "springtide",
    "title": "Paper Lanterns in the Dusk",
    "imageUrl": "Sounds strange, weird, but unmistakably romantic Vol.1",
    "genre": "International, Post-Rock, Instrumental",
    "trackUrl": "https://files.freemusicarchive.org/storage-freemusicarchive-org/music/Music_for_Video/springtide/Sounds_strange_weird_but_unmistakably_romantic_Vol1/springtide_-_02_-_Paper_Lanterns_in_the_Dusk.mp3"
  },
  {
    "mediaId": "tintamare-tannant",
    "artist": "Tintamare",
    "title": "Tannant",
    "imageUrl": "\u00c3\u2030pilogue (Lo\u00e2\u20ac\u2039-\u00e2\u20ac\u2039Fi)",
    "genre": "Folk, Progressive, Romany (Gypsy)",
    "trackUrl": "https://files.freemusicarchive.org/storage-freemusicarchive-org/music/Ziklibrenbib/Tintamare/st/Tintamare_-_05_-_Tannant.mp3"
  },
  {
    "mediaId": "tintamare-caracas",
    "artist": "Tintamare",
    "title": "Caracas",
    "imageUrl": "\u00c3\u2030pilogue (Lo\u00e2\u20ac\u2039-\u00e2\u20ac\u2039Fi)",
    "genre": "Folk, Progressive, Romany (Gypsy)",
    "trackUrl": "https://files.freemusicarchive.org/storage-freemusicarchive-org/music/Ziklibrenbib/Tintamare/st/Tintamare_-_02_-_Caracas.mp3"
  },
  {
    "mediaId": "tintamare-la-fin-des-haricots",
    "artist": "Tintamare",
    "title": "La Fin des Haricots",
    "imageUrl": "\u00c3\u2030pilogue (Lo\u00e2\u20ac\u2039-\u00e2\u20ac\u2039Fi)",
    "genre": "Folk, Progressive, Romany (Gypsy)",
    "trackUrl": "https://files.freemusicarchive.org/storage-freemusicarchive-org/music/Ziklibrenbib/Tintamare/st/Tintamare_-_06_-_La_Fin_des_Haricots.mp3"
  },
  {
    "mediaId": "tintamare-ma-tropicalita-c",
    "artist": "Tintamare",
    "title": "Ma Tropicalit\u00c3\u00a9",
    "imageUrl": "\u00c3\u2030pilogue (Lo\u00e2\u20ac\u2039-\u00e2\u20ac\u2039Fi)",
    "genre": "Folk,  Progressive, Romany (Gypsy)",
    "trackUrl": "https://files.freemusicarchive.org/storage-freemusicarchive-org/music/Ziklibrenbib/Tintamare/st/Tintamare_-_01_-_Ma_Tropicalit.mp3"
  },
  {
    "mediaId": "tintamare-propane",
    "artist": "Tintamare",
    "title": "Propane",
    "imageUrl": "\u00c3\u2030pilogue (Lo\u00e2\u20ac\u2039-\u00e2\u20ac\u2039Fi)",
    "genre": "Folk, Progressive, Romany (Gypsy)",
    "trackUrl": "https://files.freemusicarchive.org/storage-freemusicarchive-org/music/Ziklibrenbib/Tintamare/st/Tintamare_-_04_-_Propane.mp3"
  },
  {
    "mediaId": "tintamare-knowlesville",
    "artist": "Tintamare",
    "title": "Knowlesville",
    "imageUrl": "\u00c3\u2030pilogue (Lo\u00e2\u20ac\u2039-\u00e2\u20ac\u2039Fi)",
    "genre": "Folk, Progressive, Romany (Gypsy)",
    "trackUrl": "https://files.freemusicarchive.org/storage-freemusicarchive-org/music/Ziklibrenbib/Tintamare/st/Tintamare_-_03_-_Knowlesville.mp3"
  },
  {
    "mediaId": "lobo-loco-last-bar-guests-id-1137",
    "artist": "Lobo Loco",
    "title": "Last Bar Guests (ID 1137)",
    "imageUrl": "Salad Mixed",
    "genre": "Soundtrack, Latin",
    "trackUrl": "https://files.freemusicarchive.org/storage-freemusicarchive-org/music/no_curator/Lobo_Loco/Salad_Mixed/Lobo_Loco_-_07_-_Last_Bar_Guests_ID_1137.mp3"
  },
  {
    "mediaId": "dee-yan-key-an-samhradh",
    "artist": "Dee Yan-Key",
    "title": "An Samhradh",
    "imageUrl": "An Siansa h\u00c3\u2030ireann",
    "genre": "Folk, Celtic, Instrumental",
    "trackUrl": "https://files.freemusicarchive.org/storage-freemusicarchive-org/music/ccCommunity/Dee_Yan-Key/An_Siansa_hireann/Dee_Yan-Key_-_01_-_An_Samhradh.mp3"
  },
  {
    "mediaId": "dee-yan-key-an-fha3mhair",
    "artist": "Dee Yan-Key",
    "title": "An Fh\u00c3\u00b3mhair",
    "imageUrl": "An Siansa h\u00c3\u2030ireann",
    "genre": "Folk, Celtic, Instrumental",
    "trackUrl": "https://files.freemusicarchive.org/storage-freemusicarchive-org/music/ccCommunity/Dee_Yan-Key/An_Siansa_hireann/Dee_Yan-Key_-_02_-_An_Fhmhair.mp3"
  },
  {
    "mediaId": "dee-yan-key-an-earraigh",
    "artist": "Dee Yan-Key",
    "title": "An Earraigh",
    "imageUrl": "An Siansa h\u00c3\u2030ireann",
    "genre": "Folk, Celtic, Instrumental",
    "trackUrl": "https://files.freemusicarchive.org/storage-freemusicarchive-org/music/ccCommunity/Dee_Yan-Key/An_Siansa_hireann/Dee_Yan-Key_-_03_-_An_Earraigh.mp3"
  },
  {
    "mediaId": "checkie-brown-rosalie-bossanova-cb-020",
    "artist": "Checkie Brown",
    "title": "Rosalie - Bossanova (CB 020)",
    "imageUrl": "Staubkeller Live",
    "genre": "Jazz, Latin",
    "trackUrl": "https://files.freemusicarchive.org/storage-freemusicarchive-org/music/no_curator/Checkie_Brown/Staubkeller_Live/Checkie_Brown_-_07_-_Rosalie_-_Bossanova_CB_020.mp3"
  }
]